:04000000D6EF00F047
:10000800FACF01F0FBCF02F0E9CF03F064EF1EF066
:10001800D8CF60F0E8CF61F0E0CF62F0FACF63F0BC
:10002800FBCF64F0E9CF65F0EACF66F0E1CF67F087
:10003800E2CF68F0D9CF69F0DACF6AF0F3CF6BF08E
:10004800F4CF6CF0F6CF6DF0F7CF6EF0F8CF6FF01D
:10005800F5CF70F07ED0000E406EF2A047D081CF71
:100068003EF000F0F2903EA83ED0600E4218D8A4B0
:1000780025D04A50D8A414D04850D8A411D0040E82
:100088001B6E010E1AEC1CF01BC083F11CC084F11E
:100098002BEC24F0010E0101886F010E4A6E23D06B
:1000A8004850D8B407D06E0E1B6EFF0E1C6E55EC70
:1000B80006F019D0010E0101896F15D0800E421883
:1000C800D8A406D0010E0001D86F1CEC24F00BD088
:1000D800200E4218D8A407D0300E1B6EFF0E1C6EDF
:1000E80055EC06F000D0010E406E00D0A4BAA3AAC9
:1000F80033D045EC22F03F6EA49AA6A20CD04F0E46
:10010800A616BA9ACF0EA316C90E1B6EFF0E1C6E4A
:1001180055EC06F01ED0A6A407D0B80E1B6EFF0E35
:100128001C6E55EC06F015D0B9A207D0FD0E1B6E5B
:10013800FE0E1C6E55EC06F00CD0000E106E010E73
:100148000F6E3FC011F064EC18F0640E01019C6F53
:1001580000D0010E406E00D04050D8A47CD770C0AB
:10016800F5FF6FC0F8FF6EC0F7FF6DC0F6FF6CC0FB
:10017800F4FF6BC0F3FF6AC0DAFF69C0D9FF68C03B
:10018800E2FF67C0E1FF66C0EAFF65C0E9FF64C03F
:10019800FBFF63C0FAFF62C0E0FF61C0E8FF60C018
:1001A800D8FF100086EF1DF021EE45F010EEA7F005
:1001B800050EDBCFE3FFE806FCE2240E0001726FB8
:1001C800000E716FD3EC0DF0000E0001726F0F0E70
:1001D800716F65EC20F0000E0001A16F000EA06F9A
:1001E8008B9C1A0EE82EFED700D0000E0001B06FCF
:1001F80034D037D08B9EB0C099F0400E00019A6F72
:10020800000E00019B6F0001992B04D000019B3563
:100218009B339A330001992FF9D700019A510001B5
:10022800ED1500019C6F00019C510001A06FA16BAE
:100238000001A0510001A111D8B402D08B8C02D0CA
:100248008B9C00D01A0EE82EFED700D08B8E1A0E8B
:10025800E82EFED700D00001B02B060E0001B065D5
:10026800C9D78B9E8B8C1A0EE82EFED700D08B8EAA
:100278001A0EE82EFED700D08B9E948C1A0EE82E0C
:10028800FED700D08B8E1A0EE82EFED700D0000EB7
:1002980082BC010E0001A26F0001A2510001D8A486
:1002A8002FD0000E0001B16F070E0001B16501D01B
:1002B80034D08B9E1A0EE82EFED700D08B8E1A0EE5
:1002C800E82EFED700D082AC17D0B1C099F0800ECE
:1002D80000019A6F000E00019B6F0001992B04D05A
:1002E80000019B359B339A330001992FF9D7000100
:1002F8009A510001A72700D00001B12BD5D70DD006
:100308007F0E01017C6F7B69010173697469000EBE
:100318000001986F000E976F12008B9E949C8B9C27
:100328001A0EE82EFED700D08B8E1A0EE82EFED7B6
:1003380000D0000E0001B26F27D02AD08B9E948C7B
:100348001A0EE82EFED700D08B8E1A0EE82EFED796
:1003580000D082AC17D0B2C099F0800E00019A6F1D
:10036800000E00019B6F0001992B04D000019B3502
:100378009B339A330001992FF9D700019A51000154
:10038800A82700D00001B22B070E0001B265D6D70E
:100398008B9E949C8B9C1A0EE82EFED700D08B8ED9
:1003A8001A0EE82EFED700D0000E0001B36F27D03A
:1003B8002AD08B9E948C1A0EE82EFED700D08B8EF6
:1003C8001A0EE82EFED700D082AC17D0B3C099F031
:1003D800800E00019A6F000E00019B6F0001992B9F
:1003E80004D000019B359B339A330001992FF9D72C
:1003F80000019A510001A92700D00001B32B070E74
:100408000001B365D6D78B9E949C8B9C1A0EE82E60
:10041800FED700D08B8E1A0EE82EFED700D0000E25
:100428000001B46F27D02AD08B9E948C1A0EE82E28
:10043800FED700D08B8E1A0EE82EFED700D082ACE5
:1004480017D0B4C099F0800E00019A6F000E000119
:100458009B6F0001992B04D000019B359B339A3385
:100468000001992FF9D700019A510001AA2700D05D
:100478000001B42B070E0001B465D6D78B9E949C5F
:100488008B9C1A0EE82EFED700D08B8E1A0EE82E03
:10049800FED700D0000E0001B56F27D02AD08B9E62
:1004A800948C1A0EE82EFED700D08B8E1A0EE82EEA
:1004B800FED700D082AC17D0B5C099F0800E0001ED
:1004C8009A6F000E00019B6F0001992B04D0000168
:1004D8009B359B339A330001992FF9D700019A5124
:1004E8000001AB2700D00001B52B070E0001B56550
:1004F800D6D78B9E949C8B9C1A0EE82EFED700D0E4
:100508008B8E1A0EE82EFED700D0000E0001B66FB3
:1005180027D02AD08B9E948C1A0EE82EFED700D0B6
:100528008B8E1A0EE82EFED700D082AC17D0B6C03C
:1005380099F0800E00019A6F000E00019B6F000178
:10054800992B04D000019B359B339A330001992FD6
:10055800F9D700019A510001AC2700D00001B62B51
:10056800070E0001B665D6D78B9E949C8B9C1A0EFD
:10057800E82EFED700D08B8E1A0EE82EFED700D0BC
:100588008B9E1A0EE82EFED700D08B8E1A0EE82E00
:10059800FED700D0949C8B8CA7C0A3F00001A46B5D
:1005A8000001A351A46FA36B0001A8510001A3137C
:1005B800A70E0001716F000E0001726F000E00019E
:1005C800746F020E736FDBEC1CF00001A919D8B42C
:1005D8000DD07F0E01017C6F7B690101736974691D
:1005E800000E0001986F000E976F1200AAC0A5F0C8
:1005F8000001A66B0001A551A66FA56B0001AB51C8
:100608000001A513AA0E0001716F000E0001726FA0
:10061800000E0001746F020E736FDBEC1CF000011A
:10062800AC19D8B40DD07F0E01017C6F7B69010134
:1006380073697469000E0001986F000E976F1200BD
:10064800A3C079F0A4C07AF0A4EC22F079C0B7F086
:100658007AC0B8F07BC0B9F0B7C079F0B8C07AF00A
:10066800B9C07BF0000E00017C6F2F0E00017D6F7A
:10067800430E00017E6F51EC13F079C0B7F07AC0D9
:10068800B8F07BC0B9F0B7C088F0B8C089F0B9C07D
:100698008AF0FF0E00018B6F7F0E00018C6F470EF2
:1006A80000018D6F65EC15F088C0B7F089C0B8F00F
:1006B8008AC0B9F0B7C088F0B8C089F0B9C08AF06C
:1006C800000E00018B6F340E00018C6FC20E00010A
:1006D8008D6F1FEC0AF088C0B7F089C0B8F08AC0E7
:1006E800B9F0B7C058F1B8C059F1B9C05AF158C1FA
:1006F80079F059C17AF05AC17BF0000E00017C6F85
:10070800200E00017D6F410E00017E6F51EC13F049
:1007180079C09DF07AC09EF07BC09FF09DC071F0BB
:100728009EC072F09FC073F0BCEC14F071C07BF1F6
:1007380072C07CF1A5C079F0A6C07AF0A4EC22F0D2
:1007480079C0ADF07AC0AEF07BC0AFF0ADC079F043
:10075800AEC07AF0AFC07BF0000E00017C6FC80E0F
:1007680000017D6F420E00017E6F51EC13F079C0DD
:10077800ADF07AC0AEF07BC0AFF0ADC088F0AEC0CF
:1007880089F0AFC08AF0FF0E00018B6F7F0E000169
:100798008C6F470E00018D6F65EC15F088C0ADF0C9
:1007A80089C0AEF08AC0AFF0ADC055F1AEC056F109
:1007B800AFC057F155C171F056C172F057C173F00F
:1007C800BCEC14F071C073F172C074F1000E00013A
:1007D800986F010E976F120012008C0E00019E6F29
:1007E800000E00019F6F4CD2250E0001A519D8B448
:1007F80005D00001A5515CEC23F042D2000E0001A7
:10080800A46F000EA36F000E0001A26F07D00001B5
:10081800A28500018A4B8B2B01D00BD08AC0F6FF32
:100828008BC0F7FF0800F550300AD8B4F0D701D0D4
:10083800F5D78AC0F6FF8BC0F7FF0800F5508DEC9E
:1008480022F0D8A0A5D0000E0001A46F000EA36F5F
:1008580000D0A3C084F0A4C085F0000E0001876F0B
:100868000A0E866FF2EC21F084C0A3F085C0A4F0D4
:10087800D00E0001946FFF0E0001956F8AC0F6FF3D
:100888008BC0F7FF0800F5500001966F976B0001C9
:10089800945100019627000195510001972300010A
:1008A80096510001A327000197510001A4230001DC
:1008B8008A4B8B2B8AC0F6FF8BC0F7FF0800F550D8
:1008C8008DEC22F0D8A064D0C4D762D012007FD0BB
:1008D80000D00001A28F7BD00001A35100019B5DD5
:1008E8000001A45100019C59D8B009D000019B51C6
:1008F8000001A35F00019C510001A45B0AD0000E17
:100908000001A46F000EA36F04D0200E5CEC23F04E
:1009180000D00001A307D8A0A4070001A329F5E18E
:100928000001A429D8B40DD0F0D70BD099C0D9FFB5
:100938009AC0DAFFDF505CEC23F00001994B9A2B48
:1009480000D000019B07D8A09C0700019B29EEE17D
:1009580000019C29D8B494D1E9D792D19EC0D9FF7F
:100968009FC0DAFFDF500001A56F020E00019E272D
:10097800000E9F2300D0A50E0001996F000E000104
:100988009A6F000E00019C6F010E9B6FA5D71FD0B8
:100998008AC0F6FF8BC0F7FF00018A4B8B2B08003B
:1009A800F5CFA5F00001A551000AD8B41200580AE5
:1009B800D8B48FD73B0AD8B4D1D7070AD8B407D050
:1009C8000D0AD8B404D0110AD8B483D7D4D70001FB
:1009D800A2BF19D09EC0D9FF9FC0DAFFDECFA0F01A
:1009E800DDCFA1F0020E00019E27000E9F2300011B
:1009F800A1AF5DD0030E0001A2130001A06DA11FDD
:100A0800D8B0A12B54D09EC0D9FF9FC0DAFFDECF4B
:100A1800A0F0DDCFA1F0020E00019E27000E9F235B
:100A280046D0010E0001A56F050E0001A519D8B426
:100A380048D001D046D00001A551020DA30EF324E1
:100A4800F66EFE0EF420F76E0900F5500001A05D69
:100A58000900F5500001A159D8A033D001D031D0F8
:100A68000001A52BE1D72DD0010E0001A56F040EC2
:100A78000001A519D8B425D001D023D00001A55173
:100A8800020DAD0EF324F66EFE0EF420F76E09008B
:100A9800F5500001A05D0900F5500001A159D8A04A
:100AA80010D001D00ED00001A52BE1D70AD000014B
:100AB800A251800B000AD8B4B4D7800AD8B4D4D7CE
:100AC80000D00001A3510001A411D8B40CD0A2C0D9
:100AD80094F0030E00019417D8B405D00001A307C1
:100AE800D8A0A40700D0800E0001A5BF7F0E00018A
:100AF800946F0001A3510001A55D0001A451800A73
:100B080000019459D8B00BD00001A5510001A35F92
:100B1800000E0001A5BFFF0E0001A45B06D0000E69
:100B28000001A46F000EA36F00D00001A2A520D081
:100B3800A2C094F0030E00019417D8B404D02D0E6F
:100B48005CEC23F000D00001A3510001A411D8B43B
:100B58002FD0300E5CEC23F00001A307D8A0A40727
:100B68000001A3510001A411D8B422D0F2D720D09B
:100B78000001A3510001A411D8B40FD0200E5CECE1
:100B880023F00001A307D8A0A4070001A351000186
:100B9800A411D8B402D0F2D700D0A2C094F0030EAA
:100BA80000019417D8B404D02D0E5CEC23F000D0CB
:100BB800A5C09DF05DD04DD000019D51020DA30E42
:100BC800F324F66EFE0EF420F76E0900F5CF73F0ED
:100BD8000A00F5CF74F0A0C071F0A1C072F0F1EC7A
:100BE8001EF071C078F072C079F0000E00017B6FC2
:100BF8000A0E7A6F2FEC20F000017851300F0001B7
:100C0800A56F31D0A0C071F0A1C072F000019D5154
:100C1800020DAD0EF324F66EFE0EF420F76E0900F9
:100C2800F5CF73F00A00F5CF74F0F1EC1EF0000177
:100C380071510F0B0001986F00019851010DA70E1B
:100C4800F324F66EFF0EF420F76E0800F5CFA5F03A
:100C58000AD00001A251800B000AD8B4ADD7800A8F
:100C6800D8B4D0D700D00001A5515CEC23F000D057
:100C780000019D0700019D29D8B402D0EAD700D011
:100C88008AC0F6FF8BC0F7FF00018A4B8B2B080048
:100C9800F5CFA5F00001A551D8B41200A5D51200D2
:100CA80012001D0E276E000E286EE5D1250E2E1897
:100CB800D8B404D02E50C6EC23F0DDD1000E2D6E32
:100CC800000E2C6E000E2B6E05D02B841B4A1C2A9E
:100CD80001D00BD01BC0F6FF1CC0F7FF0800F55071
:100CE800300AD8B4F2D701D0F5D71BC0F6FF1CC024
:100CF800F7FF0800F5503AEC23F0D8A081D0000E99
:100D08002D6E000E2C6E00D02CC00FF02DC010F0F0
:100D1800000E126E0A0E116ECFEC22F00FC02CF0EE
:100D280010C02DF0D00E1D6EFF0E1E6E1BC0F6FFFC
:100D38001CC0F7FF0800F5501F6E206A1D501F26C3
:100D48001E5020221F502C2620502D221B4A1C2AC0
:100D58001BC0F6FF1CC0F7FF0800F5503AEC23F063
:100D6800D8A04ED0D1D74CD0120067D000D02B8E4F
:100D780064D02C50245C2D502558D8B005D0245070
:100D88002C5E25502D5A09D0000E2D6E000E2C6EAB
:100D980004D0200EC6EC23F000D02C06D8A02D06D7
:100DA8002C28F7E12D28D8B40CD0F3D70AD022C0CC
:100DB800D9FF23C0DAFFDF50C6EC23F0224A232AEA
:100DC80000D02406D8A025062428F1E12528D8B487
:100DD80052D1EDD750D127C0D9FF28C0DAFFDF5054
:100DE8002E6E020E2726000E282200D02E0E226E0E
:100DF800000E236E000E256E010E246EBAD71DD08C
:100E08001BC0F6FF1CC0F7FF1B4A1C2A0800F5CFC1
:100E18002EF02E50000AD8B41200580AD8B4A7D71A
:100E28003B0AD8B4D8D7070AD8B407D00D0AD8B423
:100E380004D0110AD8B49BD7D9D72BBE15D027C058
:100E4800D9FF28C0DAFFDECF29F0DDCF2AF0020E65
:100E58002726000E28222AAE4ED0030E2B12296C0C
:100E68002A1ED8B02A2A47D027C0D9FF28C0DAFFBF
:100E7800DECF29F0DDCF2AF0020E2726000E282229
:100E88003AD0010E2E6E050E2E18D8B43DD001D0E2
:100E98003BD02E50020DA30EF324F66EFE0EF42066
:100EA800F76E0900F550295C0900F5502A58D8A0BA
:100EB8002BD001D029D02E2AE6D726D0010E2E6EAF
:100EC800040E2E18D8B420D001D01ED02E50020DFA
:100ED800AD0EF324F66EFE0EF420F76E0900F55001
:100EE800295C0900F5502A58D8A00ED001D00CD0A2
:100EF8002E2AE6D709D02B50800B000AD8B4C1D7C8
:100F0800800AD8B4DBD700D02C502D10D8B40AD022
:100F18002BC01DF0030E1D16D8B404D02C06D8A083
:100F28002D0600D0800E2EBE7F0E1D6E2C502E5C1E
:100F38002D50800A1D58D8B007D02E502C5E000EB8
:100F48002EBEFF0E2D5A05D0000E2D6E000E2C6EF3
:100F580000D02BA41AD02BC01DF0030E1D16D8B438
:100F680004D02D0EC6EC23F000D02C502D10D8B490
:100F780026D0300EC6EC23F02C06D8A02D062C5017
:100F88002D10D8B41CD0F5D71AD02C502D10D8B4A9
:100F98000CD0200EC6EC23F02C06D8A02D062C5021
:100FA8002D10D8B402D0F5D700D02BC01DF0030EF9
:100FB8001D16D8B404D02D0EC6EC23F000D02EC0D8
:100FC80026F053D045D02650020DA30EF324F66E1A
:100FD800FE0EF420F76E0900F5CF11F00A00F5CFE8
:100FE80012F029C00FF02AC010F0CBEC20F00FC08F
:100FF80016F010C017F0000E196E0A0E186E26ECC7
:1010080021F01650300F2E6E2CD029C00FF02AC0B8
:1010180010F02650020DAD0EF324F66EFE0EF420ED
:10102800F76E0900F5CF11F00A00F5CF12F0CBECFE
:1010380020F00F500F0B216E2150010DA70EF32445
:10104800F66EFF0EF420F76E0800F5CF2EF009D0EB
:101058002B50800B000AD8B4B6D7800AD8B4D5D79D
:1010680000D02E50C6EC23F000D026062628D8B48F
:1010780002D0EED700D01BC0F6FF1CC0F7FF1B4AFA
:101088001C2A0800F5CF2EF02E50D8B412000ED628
:101098001200120021EE4BF010EE9BF0050EDBCF94
:1010A800E3FFE806FCE20B0E0001976F620EE82EE4
:1010B800FED7972FFCD700D0A80E07EC14F0C80E67
:1010C80000F0E82EFDD7000E0001A26F000EA16F00
:1010D8008B9C000E0001A76F34D037D08B9EA7C021
:1010E80097F0400E0001986F000E0001996F000103
:1010F800972B04D000019935993398330001972F25
:10110800F9D7000198510001EE1500019A6F00010E
:101118009A510001A16FA26B0001A1510001A21117
:10112800D8B402D08B8C02D08B9C00D01A0EE82E3B
:10113800FED700D08B8E1A0EE82EFED700D0000105
:10114800A72B060E0001A765C9D78B9E8B8C1A0E9C
:10115800E82EFED700D08B8E1A0EE82EFED700D0D0
:101168008B9E948C1A0EE82EFED700D08B8E1A0E0A
:10117800E82EFED700D0000E82BC010E0001A36F3E
:101188000001A3510001D8A42FD0000E0001A86FC0
:10119800070E0001A86501D02BD08B9E1A0EE82EF1
:1011A800FED700D08B8E1A0EE82EFED700D082AC68
:1011B80017D0A8C097F0800E0001986F000E0001AC
:1011C800996F0001972B04D0000199359933983312
:1011D8000001972FF9D70001985100019B2700D0F3
:1011E8000001A82BD5D704D00101756976691200D2
:1011F8008B9E949C8B9C1A0EE82EFED700D08B8E6B
:101208001A0EE82EFED700D0000E0001A96F27D0D5
:101218002AD08B9E948C1A0EE82EFED700D08B8E87
:101228001A0EE82EFED700D082AC17D0A9C097F0CE
:10123800800E0001986F000E0001996F0001972B36
:1012480004D000019935993398330001972FF9D7C5
:101258000001985100019C2700D00001A92B070E1E
:101268000001A965D6D78B9E949C8B9C1A0EE82EFC
:10127800FED700D08B8E1A0EE82EFED700D0000EB7
:101288000001AA6F27D02AD08B9E948C1A0EE82EC4
:10129800FED700D08B8E1A0EE82EFED700D082AC77
:1012A80017D0AAC097F0800E0001986F000E0001B9
:1012B800996F0001972B04D0000199359933983321
:1012C8000001972FF9D70001985100019D2700D000
:1012D8000001AA2B070E0001AA65D6D78B9E949C05
:1012E8008B8C1A0EE82EFED700D08B8E1A0EE82EA5
:1012F800FED700D08B9E949C8B9C1A0EE82EFED7AE
:1013080000D08B8E1A0EE82EFED700D08B8C0001F1
:101318009D510001AB6FAC6BAD6BAE6BABC098F081
:10132800ACC099F0ADC09AF00001976B97C0ABF0D4
:1013380098C0ACF099C0ADF09AC0AEF000019C51D5
:101348000001AB27000EAC23AD23AE23ABC098F051
:10135800ACC099F0ADC09AF00001976B97C0ABF0A4
:1013680098C0ACF099C0ADF09AC0AEF000019B51A6
:101378000001AB27000EAC23AD23AE23ABC079F040
:10138800ACC07AF0ADC07BF0AEC07CF073EC1FF05F
:1013980079C0A4F07AC0A5F07BC0A6F0000E0001C9
:1013A8008B6F800E00018C6F450E00018D6FA4C0FD
:1013B80088F0A5C089F0A6C08AF065EC15F088C051
:1013C80079F089C07AF08AC07BF0000E00017C6F4A
:1013D800200E00017D6F410E00017E6F51EC13F06D
:1013E80079C0A4F07AC0A5F07BC0A6F0A4C088F0AC
:1013F800A5C089F0A6C08AF0000E00018B6F000E10
:1014080000018C6F3F0E00018D6F1FEC0AF088C041
:10141800A4F089C0A5F08AC0A6F0A4C071F0A5C048
:1014280072F0A6C073F0BCEC14F071C075F172C014
:1014380076F1120012008AC08EF000018F6B906B5B
:101448000001893500018E3701E38F8100018E513B
:101458000001936F8DC08EF000018F6B906B0001BF
:101468008C3500018E3701E38F8100018E51000118
:10147800926F000193510001D8B411D0000192512C
:101488000001935DD8B012D000019351000800010B
:10149800922500018E6F180E00018E6507D08BC053
:1014A80088F08CC089F08DC08AF01200000192513A
:1014B8000001D8B411D0000193510001925DD8B059
:1014C80012D00001925100080001932500018E6F8F
:1014D800180E00018E6507D088C088F089C089F091
:1014E8008AC08AF01200060E0001916F00018AAFCF
:1014F80003D00001918F00D000018DAF02D0000110
:10150800918D0001898FFF0E00018817FF0E0001E1
:101518008917000E00018A1700018C8FFF0E000149
:101528008B17FF0E00018C17000E00018D170001AC
:1015380092510001935DD8B028D00001D8908B3724
:101548008C378D37000192070001935100019219E1
:10155800D8B413D00001910791C08EF0070E000196
:101568008E17D8B40AD0E9D708D00001D8908A33AA
:10157800893388330001932B00D000019251000178
:101588009319D8B430D0F1D72ED00001935100016F
:10159800925DD8B028D00001D890883789378A372B
:1015A800000193070001935100019219D8B413D098
:1015B8000001910791C08EF0070E00018E17D8B474
:1015C8000AD0E9D708D00001D8908D338C338B33FB
:1015D8000001922B00D00001925100019319D8B458
:1015E80002D0F1D700D0000191AF12D0FF0E000158
:1015F800881BFF0E0001891BFF0E00018A1B010ECC
:1016080000018827000E00018923000E00018A23AB
:10161800000191AD13D0FF0E00018B1BFF0E0001DE
:101628008C1BFF0E00018D1B010E00018B27000E85
:1016380000018C23000E00018D2300D0000E000154
:10164800916F0001885100018B2700018951000129
:101658008C2300018A5100018D2300018DAF16D023
:10166800FF0E00018B1BFF0E00018C1BFF0E0001FB
:101678008D1B010E00018B27000E00018C23000E2C
:1016880000018D23010E0001916F00D08BC071F015
:101698008CC072F08DC073F093C074F091C075F077
:1016A800D4EC17F071C088F072C089F073C08AF06A
:1016B80012001200000ED0B6010E0101DA6F000E02
:1016C800D0B2010E0101E26F000ED0B0010E01018F
:1016D800E16FB3EC1FF0030E0001726FF00E716F33
:1016E800AAEC23F00101E36F76EC22F0000E000172
:1016F800716F000E0001726F020E99EC20F0899E46
:10170800AB0EF5EC22F0898E04009CEC0CF0040082
:10171800E3EC22F0000E00017F6F3E0E7E6F000E9C
:101728000001806F010EDFEC10F0E70E00018A6FF8
:10173800FF0E00018B6FF1EC03F0000E0001C66F85
:10174800230E0001C66501D019D0FC0E00018A6F76
:10175800FF0E00018B6F0001C651010D5A0EF324D4
:10176800F66EFF0EF420F76E0800F55000018C6F3E
:101778008D6BF1EC03F00001C62BE2D7F30E0001EC
:101788008A6FFF0E00018B6F300E0001E325000108
:101798008C6F00018D6B000E8D23F1EC03F0DB0ED6
:1017A80000018A6FFE0E00018B6FE9C08CF000010A
:1017B8008D6BEAC08EF000018F6BEBC090F00001DA
:1017C800916BECC092F00001936BF1EC03F0B70E53
:1017D80000018A6FFE0E00018B6FCAC18CF00001F8
:1017E8008D6BCBC18EF000018F6BCCC190F00001E6
:1017F800916BCDC192F00001936BF1EC03F0180EE0
:1018080000018A6FFF0E00018B6F31EC24F000019C
:10181800C26F0001C25100018C6F8D6BF1EC03F0B7
:10182800950E00018A6FFF0E00018B6FF1EC03F03B
:10183800820E00018A6FFF0E00018B6F0101E351D8
:1018480000018C6F8D6B8CBF8D07F1EC03F00001EC
:10185800E929D8A40ED00001EA29D8A40AD00001A9
:10186800EB29D8A406D00001EC29D8A402D0FF00A7
:1018780000D0000E0001726F020E716F010E0001A0
:10188800736F050EABEC1EF03DEC24F0000E72EC0D
:101898001AF0200EB3EC16F00001EA51E9C0C2F0CC
:1018A8000001C36B0001C227000EC3230001EB51E6
:1018B8000001C227000EC3230001EC510001C2251C
:1018C8000001C46F0001000E0001C3210001C56FB3
:1018D800C4C071F0C5C072F00CEC24F09386CD90B2
:1018E8009E909D90000EB3EC16F0000E4A6E000E0E
:1018F8000101886F00D00001D751D8B409D0000E7B
:101908000001D76FCD909E909D90010E0101A26FAE
:101918000001D851D8B407D0000E0001D86F000ECE
:10192800B3EC16F000D00EEC16F0E5D7D6EF00F0C9
:10193800030E0001726F7169AAEC23F00001B46F05
:101948000001B405D8A448D0460E00018A6FFF0EE6
:1019580000018B6FF1EC03F0000E0001B96F000E6F
:10196800B86F0001B9BF0AD0F00E0001B85D030ED0
:101978000001B959D8B011D001D00FD035EC24F0FE
:10198800B8C071F0B9C072F0FF0E0001736F71EC4E
:1019980021F00001B84BB92BE4D7030E0001B96F51
:1019A800F40EB86F0001B9BF07D0040E0001B95D8D
:1019B800D8B012D001D010D035EC24F0B8C071F0F6
:1019C800B9C072F0FF0E0001736F71EC21F00001D5
:1019D800B84BB92BE7D700D0020E0001B4610CD088
:1019E80035EC24F0030E0001726F7169020E0001DC
:1019F800736F71EC21F000D0000E0001B56F030E7B
:101A08000001B56501D018D00001B551010DCA0E0D
:101A1800F324D96E010EF420DA6EE80E0001B52524
:101A28000001716F0001726B030E7223AAEC23F0A0
:101A3800DF6E0001B52BE3D7030E0001726FEF0EC6
:101A4800716FAAEC23F00001B26F0001E929D8A454
:101A580051D00001EA29D8A44DD00001EB29D8A41F
:101A680049D00001EC29D8A445D0899E4B0EF5EC4D
:101A780022F0000EF5EC22F0000EF5EC22F0000E3C
:101A8800F5EC22F0000EF5EC22F0000E0001B66F26
:101A98002BD02ED0D4EC23F0000171510001B36F8C
:101AA800030E0001B6651ED0FC0E0001A66FFF0EE6
:101AB8000001A76F0001B6510001A86FA96B0001D2
:101AC800A6510001A8270001A7510001A923E90E8A
:101AD8000001A825D96E000E0001A921DA6EB3C055
:101AE800DFFF00D00001B62B070E0001B665D2D784
:101AF800898E00D0000E0001B76F070E0001B76590
:101B080001D018D00001B751010DAA0EF324D96EE7
:101B1800000EF420DA6EF40E0001B7250001716F93
:101B28000001726B030E7223AAEC23F0DF6E000132
:101B3800B72BE3D7030E0001726FFC0E716FAAEC8E
:101B480023F0FF0AD8A404D0000EE1EC23F009D05A
:101B5800030E0001726FFC0E716FAAEC23F0E1EC2A
:101B680023F0030E0001726FFD0E716FAAEC23F0D3
:101B7800FF0AD8B40BD001D009D0030E0001726F50
:101B8800FD0E716FAAEC23F007EC23F0030E0001A1
:101B9800726FFE0E716FAAEC23F0120012008B9C7C
:101BA8001A0EE82EFED700D0000E00017C6F2ED052
:101BB80031D08B9E7CC073F0400E0001746F000E14
:101BC8000001756F0001732B04D000017535753362
:101BD80074330001732FF9D7000174510001ED151A
:101BE80000017A6F00017A510001D8B402D08B8CC1
:101BF80002D08B9C00D01A0EE82EFED700D08B8E18
:101C08001A0EE82EFED700D000017C2B060E00012C
:101C18007C65CFD78B9E8B9C1A0EE82EFED700D002
:101C28008B8E1A0EE82EFED700D08B9E948C1A0E3F
:101C3800E82EFED700D08B8E1A0EE82EFED700D0E5
:101C4800000E82BC010E00017B6F00017B51000178
:101C5800D8A43ED0949C000E00017D6F070E0001B1
:101C68007D6501D035D08B9E7DC073F0000E0001DC
:101C7800746F800E0001756F0001732B04D0000192
:101C8800D890753374330001732FF9D7000171515F
:101C9800000174150001766F00017251000175157D
:101CA8000001776F0001765100017711D8B402D096
:101CB8008B8C02D08B9C00D01A0EE82EFED700D059
:101CC8008B8E1A0EE82EFED700D000017D2BC6D7CA
:101CD8008B9E948C1A0EE82EFED700D08B8E1A0E8F
:101CE800E82EFED700D0000E82BC010E00017B6FEB
:101CF80000017B510001D8A43ED0949C000E000145
:101D08007E6F070E00017E6501D035D08B9E7EC0A8
:101D180073F0800E0001746F000E0001756F0001F2
:101D2800732B04D000017535753374330001732F9C
:101D3800F9D700017151000174150001786F000195
:101D48007251000175150001796F00017851000189
:101D58007911D8B402D08B8C02D08B9C00D01A0E8B
:101D6800E82EFED700D08B8E1A0EE82EFED700D0B4
:101D780000017E2BC6D78B9E948C1A0EE82EFED7B8
:101D880000D08B8E1A0EE82EFED700D0000E82BC33
:101D9800010E00017B6F8B9E1A0EE82EFED700D035
:101DA8008B8E1A0EE82EFED700D0949C8B8C1200D6
:101DB8000001746F8B9C1A0EE82EFED700D0000E1F
:101DC8000001766F2ED031D08B9E76C071F0400E18
:101DD8000001726F000E0001736F0001712B04D0B7
:101DE80000017335733372330001712FF9D7000185
:101DF80072510001EE150001796F0001795100015F
:101E0800D8B402D08B8C02D08B9C00D01A0EE82E4E
:101E1800FED700D08B8E1A0EE82EFED700D0000118
:101E2800762B060E00017665CFD78B9E8B9C1A0EFB
:101E3800E82EFED700D08B8E1A0EE82EFED700D0E3
:101E48008B9E948C1A0EE82EFED700D08B8E1A0E1D
:101E5800E82EFED700D0000E82BC010E0001756F7F
:101E6800000175510001D8A436D0949C000E0001E1
:101E7800776F070E0001776501D02DD08B9E77C054
:101E880071F0800E0001726F000E0001736F000187
:101E9800712B04D000017335733372330001712F35
:101EA800F9D700017251200B0001796F00017951B7
:101EB8000001D8B402D08B8C02D08B9C00D01A0EB3
:101EC800E82EFED700D08B8E1A0EE82EFED700D053
:101ED8000001772BCED78B9E948C1A0EE82EFED756
:101EE80000D08B8E1A0EE82EFED700D0000E82BCD2
:101EF800010E0001756F000175510001D8A43DD095
:101F0800949C000E0001786F070E0001786501D0DF
:101F180034D08B9E000174510001D8B416D078C01B
:101F280071F0800E0001726F000E0001736F0001E6
:101F3800712B04D000017335733372330001712F94
:101F4800F9D700017251800B01D0000E0001796FA2
:101F5800000179510001D8B402D08B8C02D08B9C3F
:101F680000D01A0EE82EFED700D08B8E1A0EE82E5F
:101F7800FED700D00001782BC7D78B9E948C1A0E01
:101F8800E82EFED700D08B8E1A0EE82EFED700D092
:101F9800000E82BC010E0001756F8B9E1A0EE82E92
:101FA800FED700D0949C8B8C1A0EE82EFED700D05A
:101FB8008B8E1A0EE82EFED700D012008B9C1A0EBC
:101FC800E82EFED700D0000E0001756F2ED031D05C
:101FD8008B9E75C071F0400E0001726F000E0001FB
:101FE800736F0001712B04D00001733573337233A2
:101FF8000001712FF9D7000172510001EE1500019F
:10200800786F000178510001D8B402D08B8C02D0CF
:102018008B9C00D01A0EE82EFED700D08B8E1A0E9D
:10202800E82EFED700D00001752B060E000175655D
:10203800CFD78B9E8B9C1A0EE82EFED700D08B8EA6
:102048001A0EE82EFED700D08B9E948C1A0EE82E1E
:10205800FED700D08B8E1A0EE82EFED700D0000EC9
:1020680082BC010E0001746F000174510001D8A4F4
:1020780036D0949C000E0001766F070E000176653D
:1020880001D02DD08B9E76C071F0800E0001726F4A
:10209800000E0001736F0001712B04D0000173352D
:1020A800733372330001712FF9D700017251210B7C
:1020B8000001786F000178510001D8B402D08B8CF0
:1020C80002D08B9C00D01A0EE82EFED700D08B8E43
:1020D8001A0EE82EFED700D00001762BCED78B9EA5
:1020E800948C1A0EE82EFED700D08B8E1A0EE82E8E
:1020F800FED700D0000E82BC010E0001746F0001F3
:1021080074510001D8A436D0949C000E0001776F5A
:10211800070E0001776501D02DD08B9E77C071F036
:10212800800E0001726F000E0001736F0001712BA9
:1021380004D000017335733372330001712FF9D75E
:1021480000017251010B0001786F00017851000104
:10215800D8B402D08B8C02D08B9C00D01A0EE82EFB
:10216800FED700D08B8E1A0EE82EFED700D00001C5
:10217800772BCED78B9E948C1A0EE82EFED700D0E4
:102188008B8E1A0EE82EFED700D0000E82BC010EF0
:102198000001746F8B9E1A0EE82EFED700D0949C17
:1021A8008B8C1A0EE82EFED700D08B8E1A0EE82ED6
:1021B800FED700D012000001856F000E0001876F66
:1021C800000E886F000E896F000E8A6F040E0001E2
:1021D8008019D8A40BD07EC087F07FC088F000019A
:1021E800000E88BFFF0E896F8A6F5FD00001805193
:1021F8000001D8A43AD07EC081F07FC082F0000EE2
:10220800000182BFFF0E836F846F0F0ED89000010C
:102218008137823783378437E82EF8D781C071F049
:1022280082C072F083C073F084C074F0E80E0001BD
:10223800756F030E766F000E776F000E786F54EC93
:102248001BF0030E07D00001D890743373330001DC
:1022580072337133E82EF7D771C087F072C088F0F7
:1022680073C089F074C08AF020D000018005D8A41A
:102278001CD07EC081F07FC082F0000E000182BFBA
:10228800FF0E836F846F0D0ED8900001813782375F
:1022980083378437E82EF8D781C087F082C088F06A
:1022A80083C089F084C08AF000D087C081F088C0DC
:1022B80082F089C083F08AC084F00001811F821FE8
:1022C800831F841F812B000E822383238423FF0E08
:1022D800000181250001876FFF0E000182210001A6
:1022E800886F000E000183210001896F000E000134
:1022F800842100018A6F00018505D8A40BD088C00D
:10230800CFFF87C0CEFFAC0ECD6E9F809E909D8084
:10231800CD8000D0030E00018519D8A40AD088C04A
:10232800B3FF87C0B2FF8C0EB16EA292A192A082B9
:10233800B180010192510101D8A41200010E0101DE
:10234800926F000E0001866F160E0001866502D09E
:102358001200120000018651020D000EF324D96EFE
:10236800010EF420DA6E000EDE6E000EDD6E000146
:10237800862B160E00018665EDD71200120012009A
:10238800000E0001A06F000E00019A6F000E996FF9
:10239800000E00019C6F000E9B6F000E0001716F14
:1023A800080E4CEC21F0000E00019C6F000E9B6F94
:1023B800000E0001A06F090E0001A06501D023D016
:1023C80044EC24F000D024EC24F00009D8A4FBD776
:1023D800C45000019A6F996BC35000019913040E01
:1023E8000001A06509D00001995100019B27000157
:1023F8009A5100019C2300D00A0EE82EFED700D087
:102408000001A02BD8D79BC071F09CC072F0000EC1
:102418000001746F050E736FF1EC1EF071C09BF034
:1024280072C09CF0C2900101E35100019B5F000E55
:102438000101E3BFFF0E00019C5B9BC079F09CC0CB
:102448007AF0A4EC22F079C09DF07AC09EF07BC0AF
:102458009FF0330E00017C6F530E00017D6F400E1C
:1024680000017E6F9DC079F09EC07AF09FC07BF01E
:1024780051EC13F079C088F07AC089F07BC08AF0FB
:10248800000E00018B6F800E00018C6F450E00015D
:102498008D6F65EC15F088C09DF089C09EF08AC0EC
:1024A8009FF0000E00017C6FC80E00017D6F420E88
:1024B80000017E6F9DC079F09EC07AF09FC07BF0CE
:1024C80051EC13F079C088F07AC089F07BC08AF0AB
:1024D800000E00018B6F000E00018C6F3F0E000193
:1024E8008D6F1FEC0AF088C09DF089C09EF08AC0ED
:1024F8009FF09DC071F09EC072F09FC073F0BCEC5D
:1025080014F071C097F072C098F012001200000128
:10251800776F000175510001D8B402D0200E01D0A8
:10252800600E0001766F9AD0000176510209010110
:10253800AA6F630E0101B16F000177511B0F55D0CF
:102548000001765102090101AA6F640E0101B16F01
:1025580000017751040F49D0210E000177610BD09B
:10256800000176510A090101AA6F650E0101B16FD8
:1025780077C0B2F182D0000176510A090101AA6F31
:10258800640E0101B16F00017751190F2ED075D07B
:10259800000176510A090101AA6F650E0101B16FA8
:1025A80000017751210F21D00C0E000177610DD069
:1025B8000001765102090101AA6F630E0101B16F92
:1025C80000017751040DF350B9D70B0E0001776560
:1025D8000FD0190E000177610BD000017651020966
:1025E80012D0640E0101B16F11D00101B26F45D054
:1025F800180E0001776510D01F0E000177610CD00E
:10260800000176510A090101AA6FEBD7000177454D
:10261800E846FC0BD00FE9D71E0E0001776509D0FC
:10262800270E0001776105D00CD0650E0101B16F4E
:102638000ED0260E0001776520D0320E000177619A
:102648001CD0000176510A090101AA6FEED70001DA
:102658007745E846FC0B850FC8D70FD00101D85144
:10266800010AD8B461D7030AD8B46AD7010AD8B422
:1026780073D7070AD8B48CD797D7AAC173F0000EBE
:102688002AEC22F0B1C173F00E0E2AEC22F0B2C18E
:1026980073F0100E2AEC22F012007BC07FF00001CC
:1026A800806B816B00017A3500017F3701E38081FF
:1026B80000017F510001826F00018251D8A40AD025
:1026C800000E0001796F000E00017A6F000E000104
:1026D8007B6F12007EC07FF00001806B816B000170
:1026E8007D3500017F3701E3808100017F510001C2
:1026F800876F00018751D8A40AD0000E0001796FB6
:10270800000E00017A6F000E00017B6F12000001BD
:1027180087517B0F000182277BC087F000017E5123
:102728000001871B800E0001871700017A8F0001C6
:102738007D8FFF0E00017C17FF0E00017D17000E34
:1027480000017E17000E0001836F000E0001846FE8
:10275800000E0001856F070E0001866F00D0000192
:1027680079A10DD000017C510001832700017D5122
:102778000001842300017E510001852300D000015F
:10278800D8907B337A3379330001D8907C377D3702
:102798007E370001862FE3D700D0090E0001866F2F
:1027A80000D0000179A10DD000017C5100018327E0
:1027B80000017D510001842300017E510001852321
:1027C80000D00001D8907B337A3379330001D89058
:1027D8008533843383330001862FE3D700D083C049
:1027E80071F084C072F085C073F082C074F087C045
:1027F80075F0D4EC17F071C079F072C07AF073C03C
:102808007BF0120012000001746F8B9C1A0EE82EE8
:10281800FED700D0000E0001776F2ED031D08B9EEE
:1028280077C071F0400E0001726F000E0001736FE7
:102838000001712B04D0000173357333723300012A
:10284800712FF9D7000172510001EE150001766F62
:10285800000176510001D8B402D08B8C02D08B9C39
:1028680000D01A0EE82EFED700D08B8E1A0EE82E56
:10287800FED700D00001772B060E00017765CFD771
:102888008B9E8B9C1A0EE82EFED700D08B8E1A0ECC
:10289800E82EFED700D08B9E948C1A0EE82EFED719
:1028A80000D08B8E1A0EE82EFED700D0000E82BC08
:1028B800010E0001756F000175510001D8A437D0D1
:1028C800949C000E0001786F070E0001786501D016
:1028D8002ED08B9E78C071F0800E0001726F000EB2
:1028E8000001736F0001712B04D00001733573333D
:1028F80072330001712FF9D700017251000174156C
:102908000001766F000176510001D8B402D08B8C9B
:1029180002D08B9C00D01A0EE82EFED700D08B8EEA
:102928001A0EE82EFED700D00001782BCDD78B9E4B
:10293800948C1A0EE82EFED700D08B8E1A0EE82E35
:10294800FED700D0000E82BC010E0001756F8B9E71
:102958001A0EE82EFED700D0949C8B8C1A0EE82E07
:10296800FED700D08B8E1A0EE82EFED700D01200AC
:1029780073C075F00001766B776B0001723500014A
:10298800753701E376810001755100017F6F000101
:102998007F51D8A40AD0000E0001716F000E726F2B
:1029A800000E736F000E746F1200170E0001756F22
:1029B80071C076F072C077F073C078F000017529A5
:1029C8000001796F05D00001D890783377337633DA
:1029D8000001792FF8D70001765100017A6F0001C4
:1029E800728FFF0E00017117FF0E00017217000EA3
:1029F800000173170001715100017B6F00017251D2
:102A080000017C6F0001735100017D6F00017E6B36
:102A18008E0E00017F5F00017FAF1BD000017F5148
:102A2800800A8F0FD8B00BD0000E0001716F000E16
:102A3800726F000E736F000E746F120000D00001E9
:102A4800D8907E337D337C337B3300017F3FF7D7CB
:102A58001FD0170E00017F6514D0000E0001716FA2
:102A6800000E726F000E736F000E746F120009D0A3
:102A78000001D8907B377C377D377E3700017F0790
:102A880000D000017F510001D8B402D0F1D700D0A6
:102A980000017A510001D8B40AD000017E1F7D1FC1
:102AA8007C1F7B6D000E7C237D237E2300D07BC0A2
:102AB80071F07CC072F07DC073F07EC074F01200BB
:102AC80012008AC08EF000018F6B906B000189356F
:102AD80000018E3701E38F8100018E510001956F4F
:102AE80000019551D8A40AD0000E0001886F000E8D
:102AF8000001896F000E00018A6F12008DC08EF0F0
:102B080000018F6B906B00018C3500018E3701E35B
:102B18008F8100018E510001966F00019651D8A453
:102B28000AD0000E0001886F000E0001896F000EA8
:102B380000018A6F1200000E0001926F000E000162
:102B4800936F000E0001946F00019651890F0001E8
:102B5800955F8AC096F000018D510001961B800E8A
:102B6800000196170001898FFF0E00018817FF0EDC
:102B780000018917000E00018A1700018C8FFF0ED3
:102B880000018B17FF0E00018C17000E00018D1736
:102B9800180E0001916F00D00001D890923793373A
:102BA800943700018B510001885D00018C510001B0
:102BB800895900018D5100018A59D8A00ED0000111
:102BC8008B510001885F00018C510001895B000175
:102BD8008D5100018A5B000192810001D8908837ED
:102BE80089378A370001912FD7D700D092C071F06A
:102BF80093C072F094C073F095C074F096C075F0ED
:102C0800D4EC17F071C088F072C089F073C08AF0F4
:102C1800120012000101A2510101D8B44FD0010ED7
:102C2800DCEC0EF0E2EC0FF0C4EC11F097C0CDF044
:102C380098C0CEF0D8EC00F0000E0001726F1E0EA6
:102C4800716F65EC20F04EEC08F0000EDCEC0EF035
:102C5800010173510001CD250001BA6F01017451C2
:102C68000001CE210001BB6F010175510001BA2797
:102C7800010176510001BB2301017B510001BA27F4
:102C880001017C510001BB23BAC0BCF0BBC0BDF040
:102C98000001000EBDBFFF0EBE6FBF6FBCC071F05C
:102CA800BDC072F0BEC073F0BFC074F029EC23F051
:102CB80031EC1DF0000E0101A26F00D00001D751C8
:102CC800D8A412000001D851D8A412004850D8A4A2
:102CD80012000001D851D8A41200899EB90EF5EC53
:102CE80022F0898E899C8B94899039EC24F001011B
:102CF8009E2B6D0E01019E6507D0000E72EC1AF036
:102D0800000E01019E6F00D0000ED0B6010E010129
:102D1800DA6F0101DA51D8A41200000E00017E6FAB
:102D2800500E7D6F7DEC1CF07DC084F07EC085F078
:102D3800000E0001876F3E0E866FF2EC21F084C012
:102D4800C0F085C0C1F0C0C07EF0C1C07FF0000EE9
:102D58000001806F010EDFEC10F01200120000017C
:102D6800766F7BD0000E0001716F000E95EC21F09C
:102D7800E40E00D000D0E82EFCD700D000D001012E
:102D8800AA511F0B80090101AA6FAAC173F0000E96
:102D98002AEC22F0800E426E150E0001756FC60EE9
:102DA800E82EFED7752FFCD700D012000101AA51DA
:102DB8001F0B60090101AA6FAAC173F0000E2AEC6B
:102DC80022F0E8C071F0000E95EC21F0600E426E22
:102DD8001200000E0001716F000E95EC21F0010148
:102DE800AA511F0B20090101AA6FAAC173F0000E96
:102DF8002AEC22F0680E0001756FE40EE82EFED76B
:102E0800752FFCD700D0200E426E1200000E000174
:102E1800716F000E95EC21F00101AA511F0B4009BA
:102E28000101AA6FAAC173F0000E2AEC22F0400E2D
:102E3800426E1200000E0001716F000E95EC21F039
:102E48000101AA511F0B0101AA6F000E426EAAC10F
:102E580073F0000E2AEC22F0120000017651000AED
:102E6800D8B4E8D7200AD8B4B4D7600AD8B4CED733
:102E7800200AD8B49BD7E00AD8A4120073D712004E
:102E88000001710500017211D8A42AD00001E05197
:102E9800D8A4120001D01200010E0001E06F000E4C
:102EA8000001C925D96E030E0001CA21DA6E73C06C
:102EB800DFFF0001C94BCA2B0001CABF0DD00001BA
:102EC800CA5105E1800E0001C95DD8A005D0000EE9
:102ED8000001CA6F000EC96F000E0001E06F1200FA
:102EE800020E0001711900017211D8A427D04350B5
:102EF800D8A4120001D01200010E436E800E00010A
:102F0800CB25D96E030E0001CC21DA6E73C0DFFF2A
:102F18000001CB4BCC2B0001CCBF0DD0800E0001A3
:102F2800CB5D010E0001CC59D8A005D0000E0001E0
:102F3800CC6F000ECB6F000E436E1200040E000122
:102F4800711900017211D8A412000001CF51D8A440
:102F5800120001D01200010E0001CF6F3E0E0001D9
:102F6800C725D96E020E0001C821DA6E73C0DFFFD3
:102F78000001C74BC82B0001C8BF0DD00001C851C4
:102F880005E1270E0001C75DD8A005D0000E00019D
:102F9800C86F000EC76F000E0001CF6F120012003D
:102FA800000174510001D8B408D00001715100012A
:102FB800721100017311D8A413D0000E0001716FB3
:102FC800000E0001726F000E0001736F120008D02E
:102FD8000001742B0001D89073337233713300D021
:102FE800000E000171150001766F000E00017215C8
:102FF8000001776FFE0E000173150001786F000164
:1030080076510001771100017811D8B413D0E0D7B8
:1030180011D00001742B010E00017127000E000170
:103028007223000E000173230001D89073337233AA
:10303800713300D0000E000171150001766F000E8B
:10304800000172150001776FFF0E00017315000172
:10305800786F000176510001771100017811D8B41A
:103068000AD0D7D708D0000174070001D89071376B
:103078007237733700D0000172BF05D0020E00010D
:103088007461F1D700D0000174B103D00001729FC0
:1030980000D00001D89074330001745100017313FB
:1030A800000175510001D8B403D00001738F00D01E
:1030B80071C071F072C072F073C073F01200120028
:1030C8000F041010D8A42AD00001E051D8A412008F
:1030D80001D01200010E0001E06F000E0001C925A9
:1030E800D96E030E0001CA21DA6E11C0DFFF00019C
:1030F800C94BCA2B0001CABF0DD00001CA5105E156
:10310800800E0001C95DD8A005D0000E0001CA6F6D
:10311800000EC96F000E0001E06F1200020E0F18BA
:103128001010D8A427D04350D8A4120001D0120000
:10313800010E436E800E0001CB25D96E030E0001EF
:10314800CC21DA6E11C0DFFF0001CB4BCC2B000184
:10315800CCBF0DD0800E0001CB5D010E0001CC5913
:10316800D8A005D0000E0001CC6F000ECB6F000E6A
:10317800436E1200040E0F181010D8A4120000019C
:10318800CF51D8A4120001D01200010E0001CF6F58
:103198003E0E0001C725D96E020E0001C821DA6E65
:1031A80011C0DFFF0001C74BC82B0001C8BF0DD0FD
:1031B8000001C85105E1270E0001C75DD8A005D060
:1031C800000E0001C86F000EC76F000E0001CF6F20
:1031D80012001200000E00017A6F000174AF0DD0CA
:1031E8000001741F731F721F716D000E7223732309
:1031F8007423010E00017A6F00D0000178AF0AD065
:103208000001781F771F761F756D000E76237723D0
:10321800782300D000017551000176110001771163
:1032280000017811D8B43FD0010E0001796F09D0A0
:103238000001D89075377637773778370001792BC2
:1032480000D0000178BF02D0F3D700D0000175513B
:103258000001715D0001765100017259000177513A
:10326800000173590001785100017459D8A011D098
:10327800000175510001715F000176510001725B18
:10328800000177510001735B000178510001745B04
:1032980000D00001D8907833773376337533000146
:1032A800792FD4D700D000017A510001D8B40AD0C0
:1032B8000001741F731F721F716D000E7223732338
:1032C800742300D071C071F072C072F073C073F0D3
:1032D80074C074F0120012002CC02EF02F6A306AED
:1032E8002B342E3601E32F802E50386E3850D8A458
:1032F80009D0000E2A6E000E2B6E000E2C6E000EEA
:103308002D6E1200170E2E6E2AC02FF02BC030F033
:103318002CC031F02E28326E04D0D89031323032A1
:103328002F32322EFAD72F50336E2B8EFF0E2A16DD
:10333800FF0E2B16000E2C162A50346E2B50356EAD
:103348002C50366E376A8E0E385E38AE17D038502D
:10335800800A8F0FD8B00AD0000E2A6E000E2B6E8E
:10336800000E2C6E000E2D6E120000D0D890373251
:10337800363235323432383EF9D719D0170E386420
:1033880011D0000E2A6E000E2B6E000E2C6E000E51
:103398002D6E120007D0D89034363536363637368B
:1033A800380600D03850D8B402D0F5D700D0335002
:1033B800D8B409D0371E361E351E346C000E35229F
:1033C8003622372200D034C02AF035C02BF036C060
:1033D8002CF037C02DF0120012001DC021F0226A17
:1033E800236A1C34213601E322802150246E2450A4
:1033F800D8A407D0000E1B6E000E1C6E000E1D6EAA
:10340800120020C021F0226A236A1F34213601E30A
:1034180022802150296E2950D8A407D0000E1B6E97
:10342800000E1C6E000E1D6E120029507B0F242604
:103438001DC029F02050291A800E29161C8E1F8EB7
:10344800FF0E1E16FF0E1F16000E2016000E256E0C
:10345800000E266E000E276E070E286E00D01BA0E9
:1034680007D01E5025261F5026222050272200D084
:10347800D8901D321C321B32D8901E361F3620368B
:10348800282EEDD700D0090E286E00D01BA007D03B
:103498001E5025261F5026222050272200D0D890C3
:1034A8001D321C321B32D890273226322532282E64
:1034B800EDD700D025C00FF026C010F027C011F0BE
:1034C80024C012F029C013F0B7EC1BF00FC01BF09A
:1034D80010C01CF011C01DF01200120000017A6F1C
:1034E800000E00017B6F0F015A99000E4A6E000E04
:1034F8004E6E000E4B6E000E4C6E000E01019F6F5B
:10350800000E01018A6F200E426E000E01019B6FB2
:10351800000E486E000E0101A36F8986050E00019A
:10352800786F260EE82EFED7782FFCD700D0899624
:10353800680E0001786FE40EE82EFED7782FFCD7CE
:1035480000D0000E0001756F00017A518BEC12F06B
:10355800000E00017B6F1F0E00017B6501D015D0A6
:1035680000017B51010DAA0EF324D96E010EF4203F
:10357800DA6EDF500001736F00017B51020DF350CA
:103588002AEC22F000017B2BE6D70001D951E1ECAF
:1035980023F0F29600F00F015A8900F081CF79F0FC
:1035A80000F0F290F2867AC0D7F1150E0001786F1C
:1035B800C60EE82EFED7782FFCD700D0B8EC23F043
:1035C800010E0001E66F000E0001E86F1200000E08
:1035D8000001AA6F5ED0000E0001E26F4A50D8A425
:1035E80055D03E0E0001A86151D0010E486E4A50D8
:1035F800D8B40BD0000E486EDA0E00018A6FFF0EA9
:1036080000018B6FF1EC03F041D0200EB3EC16F003
:103618000101B75101090001736F1A0E2AEC22F05B
:10362800800EB3EC16F00001A851020FF9EC23F05C
:103638000001D951F9EC23F0000E0001AC6F1BD04A
:103648000001AC51010DF3500001A625D96EF450CC
:103658000001A721DA6EDF500001AB6F0001E251D3
:103668000001AB190001E26F0001AB51F9EC23F046
:103678000001AC2B00D00001A8510001AC5DD8A01E
:10368800DFD70001E251F9EC23F000D00001AA2BAA
:1036980000D00001A9510001AA5DD8A09CD7120052
:1036A800000E0001796F000E7A6F000E7B6F000E1E
:1036B8007C6F00017551000176110001771100013E
:1036C8007811D8B447D0010E00017D6F09D00001F0
:1036D800D890753776377737783700017D2B00D04B
:1036E800000178BF02D0F3D700D00001D890793715
:1036F8007A377B377C37000175510001715D000115
:103708007651000172590001775100017359000187
:10371800785100017459D8A013D0000175510001E7
:10372800715F000176510001725B00017751000161
:10373800735B000178510001745B0001798100D04E
:103748000001D890783377337633753300017D2FB5
:10375800CCD700D079C071F07AC072F07BC073F01A
:103768007CC074F012001250D8B405D00F5010105D
:103778001110D8A40ED0000E0F6E000E106E000EA1
:10378800116E120006D0122AD890113210320F3260
:1037980000D0000E0F14146E000E1014156EFE0EDD
:1037A8001114166E145015101610D8B40ED0EBD78D
:1037B8000CD0122A010E0F26000E1022000E112224
:1037C800D890113210320F3200D0000E0F14146E40
:1037D800000E1014156EFF0E1114166E14501510ED
:1037E8001610D8B408D0E5D706D01206D8900F36F0
:1037F8001036113600D010BE04D0020E1260F5D774
:1038080000D012B002D0109E00D0D89012321250C0
:1038180011121350D8B402D0118E00D00FC00FF07F
:1038280010C010F011C011F012001200216E210416
:10383800D8A40ED0CECF22F0236ACFCF24F0256AA9
:103848002450256E246A225024262350252200D095
:10385800030E2118D8A40ED0B2CF22F0236AB3CF1A
:1038680024F0256A2450256E246A225024262350E9
:10387800252200D01B50D8A42CD024C01DF025C070
:103888001EF01D1E1E1E1D4A1E2AFF0E1D241F6E21
:10389800FF0E1E20206E1FC00FF020C010F0116A0E
:1038A800126AE80E136E030E146E000E156E000EEB
:1038B800166EF9EC20F0100E05D0D89012321132A5
:1038C80010320F32E82EF9D70FC01BF010C01CF0D1
:1038D800120024C01DF025C01EF01D1E1E1E1D4A0C
:1038E8001E2AFF0E1D241B6EFF0E1E201C6E1200CA
:1038F8001200CEC171F0CFC172F0D0C173F0D1C146
:1039080074F0D2C175F0D3C176F0D4C177F0D5C1C7
:1039180078F0F2EC1FF071C0CEF172C0CFF173C035
:10392800D0F174C0D1F1390E0101CE27300ECF236A
:10393800000ED023000ED123100E00017F6FCEC1E0
:1039480080F0CFC181F0D0C182F0D1C183F00001F5
:103958007F6701D009D000018335833382338133F7
:10396800803300017F2FF3D7FF0E0001801500017F
:10397800716F7F0E000181150001726F000E00014A
:1039880082150001736F000E000183150001746F2A
:103998007DC075F07EC076F00001776B786BEEEC39
:1039A80018F071C07DF072C07EF012001200310E66
:1039B80000017D6F00017E6973C077F074C078F0F4
:1039C80042D071C0D9FF72C0DAFFDF5000017E1B00
:1039D8000001714B722B000E00017A6F080E796F8F
:1039E80027D000017EBF0AD0D89000017E350001A3
:1039F8007B6F00017C6B00017C3713D000017D5187
:103A08007EC075F00001766BD89000017537763767
:103A18000001751900017B6F0001765100017C6F70
:103A280000D07BC07EF000017907D8A07A0700D0CB
:103A38000001795100017A11D8A4D3D70001770782
:103A4800D8A0780700D00001775100017811D8A4D8
:103A5800B8D700017E5112001200000E0201D36F88
:103A6800CAC1A5F2CBC1A6F2CCC1A7F2CDC1A8F2BA
:103A7800E9C0A9F2EAC0AAF2EBC0ABF2ECC0ACF222
:103A8800050E0201AD6F5A0E0001716FFF0E0001A5
:103A9800726F000E0001736FA50E0001746F020EA5
:103AA8000001756F090E0001766F130E0001776F24
:103AB800D3EC1DF00001E351300F0201C16FCDC0FE
:103AC800C2F2CEC0C3F20201C4697BC1C5F27CC197
:103AD800C6F273C1C7F274C1C8F275C1C9F276C122
:103AE800CAF2260E0201D36FA50E0001A66F020EC0
:103AF8000001A76FD3C2A8F0010E0001A96FEBEC7B
:103B08001AF0120003EE80F012EE00F0EE6AE550B3
:103B1800E150FCE1E250FAE103EE00F0800EEE6ABB
:103B2800E806FDE102EE00F0A50EEE6AE806FDE10A
:103B380001EE00F0AA0EEE6AE806FDE100EEC7F01D
:103B4800220EEE6AE806FDE100EE41F00E0EEE6A86
:103B5800E806FDE11C0EF66E440EF76E000EF86ED8
:103B680001EEAAF010EE37F00900F5CFEEFFE550B0
:103B7800E150FAE1820EF66E480EF76E000EF86E0E
:103B880000EEE9F010EE06F00900F5CFEEFFE55083
:103B9800E150FAE1000EF86E00015EEF0BF0000E46
:103BA80000017E6F3FD0000173517EC078F00001A4
:103BB800796B00017827000E792371C07AF072C002
:103BC8007BF00001785100017A270001795100014A
:103BD8007B237AC0F6FF7BC0F7FF000EF86E00016A
:103BE80076517EC07CF000017D6B00017C27000EC1
:103BF8007D2300017C5100017425D96E00017D519F
:103C080000017521DA6E0E0EF76403D00800F55036
:103C180005D0F6CFE9FFF7CFEAFFEF50DF6E0001DE
:103C28007E2B00D00001775100017E5DD8A0BBD764
:103C380012003D6E3DC04EF04EC00FF0106A000EEF
:103C4800126E070E116E32EC1FF00F500101936FC8
:103C5800880E4E6403D0280E4E6E1200000E1E6EA3
:103C6800000E1F6E3F0E206EDA0E396EFF0E3A6E92
:103C78004E503B6E3C6A39503B263A503C223B1E24
:103C88003C1E3B4A3C2A640E3B24176E000E3C2027
:103C9800186EB7EC21F017C01BF018C01CF019C043
:103CA8001DF0F1EC19F01BC02AF01CC02BF01DC050
:103CB8002CF070EC19F02A50280F4E6E12001200EA
:103CC800EACF04F0E1CF05F0E2CF06F0D9CF07F054
:103CD800DACF08F0F3CF09F0F4CF0AF0F6CF0BF003
:103CE800F7CF0CF0F8CF0DF0F5CF0EF09EB09DA0F9
:103CF80011D09E90010E0001D76F4A50D8B404D05D
:103D08000101674B682B06D0000E0101686F000E99
:103D1800676F00D00EC0F5FF0DC0F8FF0CC0F7FFAD
:103D28000BC0F6FF0AC0F4FF09C0F3FF08C0DAFFB2
:103D380007C0D9FF06C0E2FF05C0E1FF04C0EAFFE3
:103D480003C0E9FF02C0FBFF01C0FAFF1100000138
:103D5800766F000171291DE100017229D8A419D0DC
:103D680000017651020D000EF324D96E010EF420E5
:103D7800DA6EFF0EDE6EFF0EDD6E00017651010D6C
:103D88002E0EF324D96E010EF420DA6E73C0DFFF15
:103D98001200010E000171250001746F000E000170
:103DA80072210001756F00017651020D000EF32497
:103DB800D96E010EF420DA6E74C0DEFF75C0DDFF27
:103DC80000017651010D2E0EF324D96E010EF42058
:103DD800DA6E73C0DFFF12001200000E0001776F69
:103DE800000E766F0001735100017411D8B431D000
:103DF800010E0001756F07D00001D8907337743732
:103E08000001752B00D0000174BF02D0F5D700D097
:103E18000001D89076377737000173510001715D42
:103E28000001745100017259D8A00BD000017351E0
:103E38000001715F000174510001725B000176811D
:103E480000D00001D890743373330001752FE0D788
:103E580000D076C071F077C072F01200000E146EB8
:103E680010AE07D00F6C101ED8B0102A010E146EB9
:103E780000D012AE05D0116C121ED8B0122A00D094
:103E880011501210D8B41DD0010E136E05D0D89061
:103E980011361236132A00D012BE02D0F8D700D03D
:103EA80011500F5C12501058D8A005D011500F5E59
:103EB8001250105A00D0D89012321132132EF0D767
:103EC80000D01450D8B405D00F6C101ED8B0102AEA
:103ED80000D00FC00FF010C010F0120012008E0EAC
:103EE8000001816F09D00001D8907C337B337A338D
:103EF80079330001812B00D0000E000179150001F3
:103F08007D6F000E00017A1500017E6F000E000122
:103F18007B1500017F6FFF0E00017C150001806F8B
:103F280000017D5100017E1100017F110001801107
:103F3800D8A4D9D779C071F07AC072F07BC073F079
:103F480081C074F0000E0001756FD4EC17F071C0D9
:103F580079F072C07AF073C07BF0120012007C0E08
:103F6800D36E9B8CD2909B8E200E926E320E936EE7
:103F7800130E946E860E896E010E8A6EC40E8B6EB9
:103F8800100E0F015D6F010E0F015C6FF19E0F01A6
:103F98005B910F015B930F015B850F015B970F012D
:103FA8005B990F015B9B0F015B9D0F015B9FD180AC
:103FB800000E0101966F0101516901015269010169
:103FC800536901015469000E01019D6F39EC24F019
:103FD800000ED0B6010E0101DA6F1200000E0001CA
:103FE800796F000E7A6F000E7B6F000E7C6F00D029
:103FF800000171A111D0000175510001792700015C
:10400800765100017A230001775100017B230001DA
:10401800785100017C2300D00001D890753776379D
:10402800773778370001D89074337333723371332C
:104038000001715100017211000173110001741126
:10404800D8A4D6D779C071F07AC072F07BC073F06B
:104058007CC074F0120000017A5100017B11D8B4C1
:104068002BD0010E00017C6F07D00001D8907A3761
:104078007B3700017C2B00D000017BBF02D0F5D735
:1040880000D000017A510001785D00017B510001E8
:104098007959D8A009D000017A510001785F000150
:1040A8007B510001795B00D00001D8907B337A33D3
:1040B80000017C2FE6D700D078C078F079C079F07D
:1040C800120014D0D00E0001736FCA0EE82EFED76E
:1040D800732FFCD7F60E000171250001716FFF0EDA
:1040E800000172210001726F040000D000017251BA
:1040F800E9E10B0E0001715DD8A010D0E3D70ED016
:10410800150E0001736FC60EE82EFED7732FFCD76D
:1041180000D000017107D8A0720704000001715196
:1041280000017211D8A4ECD712000001736F3F0E82
:10413800C716000EC66E00017351C61200017251F7
:10414800C71205D0C78C16D0C78CC68813D00001FB
:104158007151000AD8B4F6D7020AD8B4F5D7010AC3
:10416800D8B4F3D707D09486928A0DD094860BD012
:10417800949609D000017351040AD8B4F4D7010AFF
:10418800D8B4F4D7F5D79488949AC68A1200000E4A
:10419800146E000E136E11501210D8B421D0010EF7
:1041A800156E05D0D89011361236152A00D012BED9
:1041B80002D0F8D700D0D8901336143611500F5CBF
:1041C80012501058D8A006D011500F5E1250105A35
:1041D800138000D0D89012321132152EECD700D0AF
:1041E80013C00FF014C010F01200000E176E000E6E
:1041F800186E000E196E000E1A6E00D00FA009D0AE
:1042080013501726145018221550192216501A2226
:1042180000D0D8901336143615361636D890123288
:10422800113210320F320F50101011101210D8A482
:10423800E5D717C00FF018C010F019C011F01AC058
:1042480012F0120018501910D8B41DD0010E1A6EB1
:1042580005D0D890183619361A2A00D019BE02D0BF
:10426800F8D700D01850165C19501758D8A005D0A8
:104278001850165E1950175A00D0D89019321832B3
:104288001A2EF0D700D016C016F017C017F012007B
:104298000001736F71C072F00001723BC1500001E0
:1042A8007219CF0B7219C16EC196C190C192C19497
:1042B80073C072F0000172477247C2500001721950
:1042C800830B7219C26EC086C088C08AC050F80BB2
:1042D8000609C06EC08EC2801200000E0001746F05
:1042E80000017251030B756E71C074FF73C073FFC8
:1042F8007F9E7F9C7F84000EF2BE010E0001746FCA
:10430800F29E550E7E6EAA0E7E6E7F8200D07FB220
:10431800FED7000174B102D0F29E01D0F28E7F94D4
:1043280012000001726F000172510001D8B409D067
:104338000001E651D8B413D0899C8B94898012006F
:104348000ED0000171510001D8B409D00001E85124
:10435800D8B405D0898C8B948990120000D0899CA0
:104368008B8489901200000E1A6E18AE07D0176C55
:10437800181ED8B0182A010E1A6E00D017C00FF0F8
:1043880018C010F0116A8E0E126E1AC013F0B7EC36
:104398001BF00FC017F010C018F011C019F0120070
:1043A8001200106E1050D8B409D00001E651D8B4EC
:1043B80011D0899C8B94898012000CD00F50D8B4EE
:1043C80009D00001E851D8B405D0898C8B94899024
:1043D800120000D0899C8B848990120000018451BE
:1043E80000018603F3CF88F0F4CF89F000018451EF
:1043F80000018703F350000189270001855100015E
:104408008603F3500001892788C084F089C085F0AD
:10441800120012002A8C01020CC1776432776232D2
:1044280038F81180E938380700000507090DF00051
:104438004010DC80FFFFFFFF010000006D4EC64109
:104448000103FF0101010100C20100000001746FB6
:10445800899400017451F5EC22F0E40E00D000D0EC
:10446800E82EFCD700D000D000017351F5EC22F003
:10447800E40E00D000D0E82EFCD700D000D089840C
:104488001200F20E01018E17A6AC07D001018E9121
:10449800A6A003D001018E8100D0A6A402D00101FC
:1044A8008E85A6A202D001018E877ACF0FF00F5019
:1044B80012001200000E0001766F000E0001776FE7
:1044C8000BD01C0EBAEC22F00001776F0001775177
:1044D800020B0001766F00D0000176510001D8B4BC
:1044E800F0D7120093968A868986050E0001716FAF
:1044F800260EE82EFED7712FFCD700D08996680EBD
:104508000001716FE40EE82EFED7712FFCD700D0A2
:1045180012000001736F000E0001726F3A0E000165
:10452800736108D02F0E0001736504D0010E0001DD
:10453800726F00D072C071F0000171311200120068
:1045480079C071F07AC072F00001736B8E0E0001B1
:10455800746F000E0001756FD4EC17F071C079F01C
:1045680072C07AF073C07BF0120012000001756F00
:1045780089940001755140090001756F000175515A
:10458800F5EC22F0D4EC23F071C074F089840001BA
:104598007451120012000F501102F3CF13F0F4CF30
:1045A80014F00F501202F350142610501102F35059
:1045B800142613C00FF014C010F012001200D08E91
:1045C800F290F28CF196F1920F015A9F0F015A9DC9
:1045D8000F015A9B0F015A99F286F190F28EA59A13
:1045E80012000001726FC9CF71F09E96C69E72C00C
:1045F800C9FFC6BE120002D0120000D09EB612003B
:10460800FDD7120012000001776F00017751010BEE
:104618000001E66F000177510E0B0001766F000173
:1046280076518CEC23F012000001746F0001DF5109
:10463800D8B41200000E0001726F020E716F74C0C0
:1046480073F044EC17F012001200000171510101DF
:10465800D227000172510101D323000173510101D6
:10466800D423000174510101D5231200116E000EEC
:10467800106E3A0E116006D02F0E116403D0010E91
:10468800106E00D010C00FF00F3012001200106E24
:10469800C9CF0FF09E96C69E10C0C9FFC6BE1200B5
:1046A80002D0120000D09EB61200FDD712001200F0
:1046B8000001756F0001E751D8A404D00001E15151
:1046C800D8B412000001755118EC23F01200120042
:1046D800300E0001726FA20E716FD3EC0DF0D00E88
:1046E80000017F6FCA0EE82EFED77F2FFCD712007D
:1046F800136E899413504009136E13504BEC23F03A
:10470800EDEC23F00FC012F0898412501200120051
:104718000001756F0101C451F00B00017511010111
:10472800C46FC4C173F0340E2AEC22F01200126E6A
:104738000001DF51D8B41200000E106E020E0F6E89
:1047480012C011F064EC18F012001200000172514E
:10475800030B756E71C074FF7F9C7F9E7F8000F095
:1047680000F0735012001200200EB3EC16F0400E49
:10477800B3EC16F003EC24F05EEC22F0600EB3EC20
:1047880016F01200136E0001E751D8A404D00001FE
:10479800E151D8B4120013509BEC23F01200120020
:1047A800C9CF73F09E96000EC96E00D09EA6FED7A4
:1047B800C9CF71F00001726B12000001756F75C0EE
:1047C800D9F075C0C7F1C7C173F03A0E2AEC22F0D0
:1047D8001200C9CF11F09E96000EC96E00D09EA699
:1047E800FED7C9CF0FF0106A12000001736F8984D9
:1047F800899200017351F5EC22F089821200070EAC
:104808000001756F75C073F01C0E2AEC22F01200BF
:1048180071C0CEF172C0CFF10101D06BD16B120023
:104828000001806F80C0EDF06CEC23F012001200E4
:10483800000E486E000E0F6E000ED5EC21F012002F
:10484800C2A202D0010E1200000E12001200280EA1
:104858007CEC23F01DEC1EF012000001D95112006F
:10486800120000D07FB2FED71200D39ED18E030073
:104878001200440E14EC24F01200FFFFFFFF445C0A
:04488800C2821200D6
:10FEA2000001000A006400E80310270100100000AE
:10FEB20001001001003C494E463E4D6173743A20E8
:10FEC2003078253032582530325825303258253096
:10FED20032583C2F494E463E003C494E463E49442C
:10FEE2003A20307825303258253032582530325871
:10FEF200253032583C2F494E463E003C453E554146
:10FF02005254204261756472617465204572726F49
:10FF1200723C2F453E003C494E463E4E6F64653A68
:10FF2200203078253032583C2F494E463E003C4521
:10FF32003E73746279207768696C6520696E743CDF
:10FF42002F453E003C44453E5769706545657072D9
:10FF52006F6D3C2F44453E00656D42726561746869
:10FF62002C302E3031392C322C302C003C453E477F
:10FF72006F696E6720746F205458313C2F453E00E4
:10FF82003C494E463E436F723A2025693C2F494E0A
:10FF9200463E004669726D776172653A2076302E70
:10FFA2003031392000303132333435363738394147
:10FFB2004243444546003C453E5541525420464545
:10FFC20052523C2F453E003C453E55415254204F33
:10FFD2004552523C2F453E003C44453E655F7265AA
:10FFE2006164323A003C494E463E547970653A208B
:0EFFF2000025633C2F494E463E00256300006B
:020000040020DA
:08000000FFFFFFFFFFFFFFFF00
:020000040030CA
:0E0000001D981B36FF8980FF0FC00FE00F40D8
:00000001FF
