:020000040000FA
:040000001FEF00F0FE
:100008005A82FACF02F0FBCF03F0F2A60EEF00F00F
:1000180010EF00F019EF00F0F2A015EF00F017EF65
:1000280000F019EF00F090EC1AF003C0FBFF02C0DB
:0A003800FAFF5A921100B7EF18F01A
:100F0000000000F235EE3400000000000000000098
:100F10000000000000014000000A400300656D422F
:100F200072656174682C302E3033322C322C302CA8
:100F300000002050800B296E205020242B6E1FAE05
:100F4000A4EF07F0A6EF07F0A7EF07F02B802B50D8
:100F5000D8B4ADEF07F0AFEF07F0C4EF07F02B28E0
:100F6000D8A4B5EF07F0B7EF07F0BFEF07F0000E1A
:100F70001D6E000E1E6E000E1F6E000E206E1F8E68
:100F8000000E206ECCEF07F0000E1D6E000E1E6EE0
:100F9000000E1F6E000E206E2450800B2A6E29500A
:100FA0002A18D8B4D6EF07F0D8EF07F0D9EF07F03A
:100FB000298C245024242A6E23AEE1EF07F0E3EFBE
:100FC00007F0E4EF07F02A802A50D8B4EAEF07F0E0
:100FD000ECEF07F001EF08F02A28D8A4F2EF07F0B1
:100FE000F4EF07F0FCEF07F0000E216E000E226E0A
:100FF000000E236E000E246E238E000E246E09EF69
:1010000008F0000E216E000E226E000E236E000E00
:10101000246E2B502A5CD8B010EF08F012EF08F0C5
:1010200039EF08F029AC17EF08F019EF08F01BEFC3
:1010300008F0800E291A2BC02CF02AC02BF02CC0EF
:101040002AF01DC02CF021C01DF02CC021F01EC0C4
:101050002CF022C01EF02CC022F01FC02CF023C0A8
:101060001FF02CC023F020C02CF024C020F02CC096
:1010700024F0000E2C6E2B502AC025F0266A255E27
:10108000000E265A26BE4EEF08F0265009E11A0E31
:10109000255CD8A04EEF08F050EF08F087EF08F07D
:1010A0001D501E101F102010D8A459EF08F05CEF3F
:1010B00008F0010E5DEF08F0000E2C6E000E1D6EA4
:1010C000000E1E6E000E1F6E000E206E2AC02BF04A
:1010D00090EF08F02CA06FEF08F071EF08F077EFB9
:1010E00008F0D8902C3001092C6E79EF08F0D890D8
:1010F0002C321DA07EEF08F080EF08F081EF08F0A1
:101100002C8E203420321F321E321D322B2A2A50C0
:101110002B5CD8A08EEF08F090EF08F06AEF08F093
:1011200029BC95EF08F097EF08F0D7EF08F02B50A7
:10113000D8A49DEF08F09FEF08F0A9EF08F0000E8B
:101140001D6E000E1E6E000E1F6E000E206EF8EF5C
:1011500009F021501D2622501E2223501F22245008
:10116000202220A0B6EF08F0B8EF08F064EF09F0F5
:101170002CA0BDEF08F0BFEF08F0C5EF08F0D89045
:101180002C3001092C6EC7EF08F0D8902C321DA02E
:10119000CCEF08F0CEEF08F0CFEF08F02C8E203423
:1011A00020321F321E321D322B2A64EF09F02150EB
:1011B0001D5C22501E5823501F582050800A256E57
:1011C0002450800A2558D8B0E8EF08F0EAEF08F07C
:1011D00015EF09F01D50215C256E1E502258266E19
:1011E0001F502358276E20502458286EFF0E2524A8
:1011F0001D6EFF0E26201E6EFF0E27201F6EFF0E97
:101200002820206E800E291A2C6C2C50D8A40BEFAD
:1012100009F00DEF09F01DEF09F0010E1D26000E7B
:101220001E221F2220221DEF09F021501D5E225098
:101230001E5A23501F5A2450205A1D501E101F1092
:101240002010D8A426EF09F028EF09F05DEF09F08F
:101250002C50D8A42EEF09F030EF09F05DEF09F023
:10126000000E1D6E000E1E6E000E1F6E000E206E14
:10127000F8EF09F0D8901D361E361F3620362CAEFA
:1012800044EF09F046EF09F047EF09F01D802CA06C
:101290004CEF09F04EEF09F052EF09F0D8802C36F0
:1012A00054EF09F0D8902C362B50D8B45AEF09F0EF
:1012B0005CEF09F05DEF09F02B061FAE62EF09F05D
:1012C00064EF09F03AEF09F0000E2A6E2CAE6BEFD6
:1012D00009F06DEF09F085EF09F02CC025F07F0EC5
:1012E0002516D8B476EF09F078EF09F07CEF09F015
:1012F000010E2A6E85EF09F01DA081EF09F083EF42
:1013000009F085EF09F078EF09F02A50D8B48BEF97
:1013100009F08DEF09F0B8EF09F0010E1D26000E5F
:101320001E221F22202220A098EF09F09AEF09F038
:10133000B8EF09F01DC025F01EC026F01FC027F031
:1013400020C028F02834283227322632253225C002
:101350001DF026C01EF027C01FF028C020F02B284B
:10136000D8B4B5EF09F0B7EF09F0B8EF09F02B2AC0
:101370002B28D8B4BEEF09F0C0EF09F0C8EF09F090
:101380002B50D8A4C6EF09F0C8EF09F0DAEF09F046
:10139000000E1D6E000E1E6E000E1F6E000E206EE3
:1013A0002B50D8A4D6EF09F0D8EF09F0DAEF09F006
:1013B000000E296E2BA0DFEF09F0E1EF09F0E4EF5A
:1013C00009F01F8EE5EF09F01F9ED8902B30206E9C
:1013D00029AEEDEF09F0EFEF09F0F0EF09F0208E04
:1013E0001DC01DF01EC01EF01FC01FF020C020F049
:1013F00012000750800B106E07500724166E06AEC1
:1014000004EF0AF006EF0AF007EF0AF01680165014
:10141000D8B40DEF0AF00FEF0AF022EF0AF0162809
:10142000D8A415EF0AF017EF0AF01FEF0AF0000E2C
:10143000046E000E056E000E066E000E076E068E20
:101440002AEF0AF0000E046E000E056E000E066E06
:10145000000E076E0B50800B101A0B500B24156EEC
:101460000AAE35EF0AF037EF0AF038EF0AF01580D0
:101470001550D8B43EEF0AF040EF0AF053EF0AF0EF
:101480001528D8A446EF0AF048EF0AF050EF0AF00A
:10149000000E086E000E096E000E0A6E000E0B6E36
:1014A0000A8E5BEF0AF0000E086E000E096E000E49
:1014B0000A6E000E0B6E1550D8B461EF0AF063EFA0
:1014C0000AF06BEF0AF01650D8A469EF0AF06BEF40
:1014D0000AF075EF0AF0000E046E000E056E000EA5
:1014E000066E000E076E0DEF0CF00A500402F3CFEB
:1014F0001BF0F4CF1CF01B50116E126A136A146AB1
:101500001C50176E186A196A1A6A09500502F3CF3F
:101510001BF0F4CF1CF01B501126000E12221322D8
:1015200014221C501726000E182219221A220850C5
:101530000602F3CF1BF0F4CF1CF01B501126000E57
:101540001222132214221C501726000E18221922D0
:101550001A2213C014F012C013F011C012F0116A55
:1015600008500502F3CF1BF0F4CF1CF01B501126DE
:101570001C501222000E1322000E142209500402E5
:10158000F3CF1BF0F4CF1CF01B5011261C5012227D
:10159000000E1322000E142213C014F012C013F018
:1015A00011C012F0116A08500402F3CF1BF0F4CFFF
:1015B0001CF01B5011261C501222000E1322000E8C
:1015C00014220A500502F3CF1BF0F4CF1CF01B507D
:1015D00017261C501822000E1922000E1A2209503C
:1015E0000602F3CF1BF0F4CF1CF01B5017261C5043
:1015F0001822000E1922000E1A220A500602F3CFFA
:101600001BF0F4CF1CF01B500C6E1C500D6E0E6ABC
:101610000F6A0EC00FF00DC00EF00CC00DF00C6A7A
:101620000C5017260D5018220E5019220F501A2256
:1016300011C00CF012C00DF013C00EF014C00FF06A
:10164000190E28EF0BF0D8900F320E320D320C32FB
:10165000E82E23EF0BF00C5017260D5018220E50D9
:1016600019220F501A2213C014F012C013F011C027
:1016700012F0116A155016C00CF00D6A0C26000EFF
:101680000D22820E0C241B6EFF0E0D201C6E5EEFD1
:101690000BF0D8901736183619361A3614AE53EFA9
:1016A0000BF055EF0BF056EF0BF01780D89011367A
:1016B0001236133614361B06D8A01C0619AE63EF7B
:1016C0000BF065EF0BF049EF0BF0000E156E14AE4A
:1016D0006CEF0BF06EEF0BF092EF0BF0FF0E1114AE
:1016E0000C6EFF0E12140D6EFF0E13140E6E7F0E95
:1016F00014140F6E0C500D100E100F10D8B483EF91
:101700000BF085EF0BF089EF0BF0010E156E92EFE9
:101710000BF017A08EEF0BF090EF0BF092EF0BF0A9
:1017200085EF0BF01550D8B498EF0BF09AEF0BF053
:10173000BEEF0BF0010E1726000E182219221A22F6
:101740001AA0A5EF0BF0A7EF0BF0BEEF0BF017C040
:101750000CF018C00DF019C00EF01AC00FF00F34C5
:101760000F320E320D320C320CC017F00DC018F0D3
:101770000EC019F00FC01AF01B4A1C2A1CBEC9EF7C
:101780000BF01C5008E11B28D8A0C9EF0BF0CBEFE1
:101790000BF0D5EF0BF0000E176E000E186E800EDA
:1017A000196E7F0E1A6E03EF0CF01CBEE2EF0BF009
:1017B0001C5006E11B04D8B0E0EF0BF0E2EF0BF099
:1017C000EEEF0BF0000E176E000E186E000E196E85
:1017D000000E1A6E000E106E03EF0CF01BC016F018
:1017E000FF0E1716FF0E18167F0E1916000E1A168A
:1017F00016A0FDEF0BF0FFEF0BF000EF0CF0198ED1
:10180000D89016301A6E10501A1217C004F018C073
:1018100005F019C006F01AC007F012002050800B26
:101820002D6E20502024346E1FAE19EF0CF01BEFEC
:101830000CF01CEF0CF034803450D8B422EF0CF0D4
:1018400024EF0CF039EF0CF03428D8A42AEF0CF078
:101850002CEF0CF034EF0CF0000E1D6E000E1E6E1F
:10186000000E1F6E000E206E1F8E000E206E41EFC8
:101870000CF0000E1D6E000E1E6E000E1F6E000E90
:10188000206E2450800B2D1A24502424356E23AE54
:101890004CEF0CF04EEF0CF04FEF0CF03580355064
:1018A000D8B455EF0CF057EF0CF06CEF0CF0352876
:1018B000D8A45DEF0CF05FEF0CF067EF0CF0000EBA
:1018C000216E000E226E000E236E000E246E238EFB
:1018D000000E246E74EF0CF0000E216E000E226ECE
:1018E000000E236E000E246E2150221023102410AF
:1018F000D8A47DEF0CF07FEF0CF097EF0CF0000E0A
:101900001D6E000E1E6E000E1F6E000E206E800EED
:101910001F127F0E20122D5020121DC01DF01EC060
:101920001EF01FC01FF020C020F0DAEF0DF0345081
:10193000D8A49DEF0CF09FEF0CF0A9EF0CF0000E77
:101940001D6E000E1E6E000E1F6E000E206EDAEF72
:101950000DF0355034C025F0266A255E000E265A5B
:101960007F0E25242E6E000E26202F6E1DC029F01E
:101970001EC02AF01FC02BF020C02CF0000E1D6EE0
:10198000000E1E6E000E1F6E000E206E000E306EDA
:10199000000E316E000E326E000E336E000E356E8C
:1019A0000AEF0DF03550D8B4D8EF0CF0DAEF0CF0A8
:1019B000F1EF0CF0D89029362A362B362C36D890F9
:1019C0001D361E361F36203633AEE9EF0CF0EBEF36
:1019D0000CF0ECEF0CF01D80D890303631363236FA
:1019E00033362150295C22502A5823502B5824503A
:1019F0002C58D8A0FEEF0CF000EF0DF009EF0DF021
:101A0000338C2150295E22502A5A23502B5A2450BD
:101A10002C5A352A190E356410EF0DF012EF0DF027
:101A2000D2EF0CF029502A102B102C10D8B41BEF39
:101A30000DF01DEF0DF035EF0DF0308035EF0DF0AE
:101A4000D8901D361E361F36203633AE2AEF0DF0E5
:101A50002CEF0DF02DEF0DF01D80D8903036313683
:101A6000323633362E06D8A02F061FAE3AEF0DF0D1
:101A70003CEF0DF020EF0DF0000E356E33AE43EF6E
:101A80000DF045EF0DF069EF0DF0FF0E3014256EEF
:101A9000FF0E3114266EFF0E3214276E7F0E3314A4
:101AA000286E2550261027102810D8B45AEF0DF0B4
:101AB0005CEF0DF060EF0DF0010E356E69EF0DF08B
:101AC0001DA065EF0DF067EF0DF069EF0DF05CEF15
:101AD0000DF03550D8B46FEF0DF071EF0DF095EFBC
:101AE0000DF0010E1D26000E1E221F22202220A016
:101AF0007CEF0DF07EEF0DF095EF0DF01DC025F0A1
:101B00001EC026F01FC027F020C028F0283428323D
:101B100027322632253225C01DF026C01EF027C0F0
:101B20001FF028C020F02E4A2F2A2FBEA0EF0DF064
:101B30002F5008E12E28D8A0A0EF0DF0A2EF0DF055
:101B4000ADEF0DF0000E2F6E2E68000E1D6E000E14
:101B50001E6E000E1F6E000E206E2FBEBAEF0DF02F
:101B60002F5006E12E04D8B0B8EF0DF0BAEF0DF00B
:101B7000C8EF0DF0000E2F6E000E2E6E000E1D6EC3
:101B8000000E1E6E000E1F6E000E206E000E2D6EDB
:101B90002EC034F034A0CFEF0DF0D1EF0DF0D4EF24
:101BA0000DF01F8ED5EF0DF01F9ED8903430206EB3
:101BB0008BEF0CF0120020EE43F0050EDE6AE80613
:101BC000FDE2440E426ED890423629EC1AF04228CB
:101BD0007DEC17F00009D8A4F0EF0DF0F2EF0DF056
:101BE0000AEF0EF0000EF9EC16F0436E000EF9EC61
:101BF00016F0446E000EF9EC16F0456E000EF9EC8E
:101C000016F0466E000EF9EC16F0476E010EF9EC78
:101C100016F0486E5CEC1AF043C03EF03F6A3E504E
:101C20003F6E3E6A44503E12430E046E000E056E37
:101C3000000E076E020E066E61EC16F04518D8B461
:101C400024EF0EF026EF0EF038EF0EF036C0D9FF7D
:101C500037C0DAFFFF0EDE6E7F0EDD6E38C0D9FFB3
:101C600039C0DAFFFF0EDE6EFF0EDD6E46EF0FF0BD
:101C700046C040F0416A4050416E406A47504012B1
:101C8000460E046E000E056E000E076E020E066E06
:101C900061EC16F04818D8B450EF0EF052EF0EF089
:101CA00054EF0EF026EF0EF03EC004F03FC005F0FA
:101CB000066A076A000E3DEC10F004C04DF005C046
:101CC0004EF006C04FF007C050F04DC004F04EC0BB
:101CD00005F04FC006F050C007F0000E086E000E71
:101CE000096E2F0E0A6E430E0B6EF9EC09F004C05C
:101CF0004DF005C04EF006C04FF007C050F04DC08B
:101D00001DF04EC01EF04FC01FF050C020F0000E5E
:101D1000216EFF0E226E7F0E236E470E246E0EEC98
:101D20000CF01DC04DF01EC04EF01FC04FF020C083
:101D300050F04DC01DF04EC01EF04FC01FF050C0FF
:101D400020F0000E216E000E226E340E236EC20EA5
:101D5000246E99EC07F01DC04DF01EC04EF01FC060
:101D60004FF020C050F04DC06CF04EC06DF04FC031
:101D70006EF050C06FF06CC004F06DC005F06EC026
:101D800006F06FC007F0000E086E000E096E200E00
:101D90000A6E410E0B6EF9EC09F004C03AF005C072
:101DA0003BF006C03CF007C03DF03AC004F03BC039
:101DB00005F03CC006F03DC007F093EC13F036C0D0
:101DC000D9FF37C0DAFF04C0DEFF05C0DDFF40C029
:101DD00004F041C005F0066A076A000E3DEC10F001
:101DE00004C049F005C04AF006C04BF007C04CF0F3
:101DF00049C004F04AC005F04BC006F04CC007F0E3
:101E0000000E086E000E096EC80E0A6E420E0B6EB2
:101E1000F9EC09F004C049F005C04AF006C04BF0E7
:101E200007C04CF049C01DF04AC01EF04BC01FF067
:101E30004CC020F0000E216EFF0E226E7F0E236E2E
:101E4000470E246E0EEC0CF01DC049F01EC04AF087
:101E50001FC04BF020C04CF049C070F04AC071F078
:101E60004BC072F04CC073F070C004F071C005F04C
:101E700072C006F073C007F093EC13F038C0D9FFBE
:101E800039C0DAFF04C0DEFF05C0DDFF12000B6EB3
:101E90000750D8B44EEF0FF050EF0FF054EF0FF0A3
:101EA000200E0A6E0FEF10F0600E0A6E0FEF10F0AA
:101EB0000A5002090001976F630E9E6F0B501B0FB3
:101EC0009F6F2DEF10F00A5002090001976F640E0A
:101ED0009E6F0B50040F9F6F2DEF10F0210E0B60C3
:101EE00074EF0FF076EF0FF080EF0FF00A500A0951
:101EF0000001976F650E9E6F0BC09FF02DEF10F0E5
:101F00000A500A090001976F640E9E6F0B50190F5B
:101F10009F6F2DEF10F02DEF10F00A500A0900010D
:101F2000976F650E9E6F0B50210F9F6F2DEF10F076
:101F30000C0E0B609EEF0FF0A0EF0FF0ADEF0FF067
:101F40000A5002090001976F630E9E6F0B50040D3B
:101F5000F3501B0F9F6F2DEF10F00B0E0B64B3EFC0
:101F60000FF0B5EF0FF0CAEF0FF0190E0B60BBEFDB
:101F70000FF0BDEF0FF0CAEF0FF00A500209000199
:101F8000976F640E9E6F0B50040DF350D00F9F6F30
:101F90002DEF10F0180E0B64D0EF0FF0D2EF0FF012
:101FA000E0EF0FF01F0E0B60D8EF0FF0DAEF0FF03D
:101FB000E0EF0FF00A500A090001976FC1EF0FF030
:101FC0001E0E0B64E6EF0FF0E8EF0FF0FDEF0FF0E1
:101FD000270E0B60EEEF0FF0F0EF0FF0FDEF0FF0BC
:101FE0000A500A090001976F650E9E6F0B50040D91
:101FF000F350850F9F6F2DEF10F0260E0B6403EF4B
:1020000010F005EF10F08BEF0FF0320E0B600BEFBE
:1020100010F00DEF10F08BEF0FF0F0EF0FF0FF0E60
:10202000086E000E096E0950000AD8B41AEF10F0BD
:1020300098EF0FF00850010AD8B458EF0FF0030AD8
:10204000D8B463EF0FF0010AD8B46EEF0FF0070AAF
:10205000D8B48DEF0FF098EF0FF097C005F0000E99
:102060003CEC1AF09EC005F00E0E3CEC1AF09FC03E
:1020700005F0100E3CEC1AF012000C6E0C50D8B4A7
:1020800044EF10F046EF10F068EF10F007BE4DEF90
:1020900010F04BEF10F068EF10F004C008F005C02E
:1020A00009F006C00AF007C00BF0081E091E0A1E40
:1020B0000B1E082A000E09220A220B2208C00EF06D
:1020C00009C00FF00AC010F00BC011F070EF10F053
:1020D00004C00EF005C00FF006C010F007C011F0EC
:1020E0000450051006100710D8A479EF10F07BEF0C
:1020F00010F085EF10F0000E046E000E056E000E5D
:10210000066E000E076E16EF11F0960E0D6E8FEF35
:1021100010F00D2AD890113210320F320E32000E0C
:102120000E14086E000E0F14096E000E10140A6EC5
:10213000FE0E11140B6E085009100A100B10D8A4D3
:10214000A4EF10F0A6EF10F089EF10F0B4EF10F04C
:102150000D2A010E0E26000E0F2210221122D890F9
:10216000113210320F320E32000E0E14086E000EB5
:102170000F14096E000E10140A6EFF0E11140B6E70
:10218000085009100A100B10D8A4C9EF10F0CBEFBB
:1021900010F0A8EF10F0D3EF10F00D06D8900E3627
:1021A0000F361036113610BED8EF10F0DAEF10F0FF
:1021B000E2EF10F0020E0D60E0EF10F0E2EF10F031
:1021C000CDEF10F00DB0E7EF10F0E9EF10F0EAEF0F
:1021D00010F0109ED8900D320DC008F0096A0A6AFE
:1021E0000B6A08C00BF00A6A096A086A08500E12E6
:1021F00009500F120A5010120B5011120C50D8B483
:1022000004EF11F006EF11F00EEF11F007BE0DEF25
:1022100011F00BEF11F00EEF11F0118E0EC004F063
:102220000FC005F010C006F011C007F01200000E3C
:102230000001D26F000ED36F6AEC1AF08150F28E5B
:10224000F28C94909492000E03EC19F0000ED4ECF2
:1022500019F0000E30EC18F008EC15F00009D8A4C5
:1022600034EF11F036EF11F038EF11F0D6EC11F039
:10227000EEEC1AF00001C451C3C0CAF0CB6BCA2700
:10228000000ECB23C551CA27000ECB23C651CA2549
:10229000D06F000ECB21D16FD0C004F0D1C005F0BB
:1022A000C3EC1AF0000E0001D46F04008AB65BEF95
:1022B00011F05EEF11F0010E5FEF11F0000EFF0A5A
:1022C0000001CA6FCA47CA47CA478A50CA19F70BE2
:1022D000CA198A6E020E0001CB6F040ECA6FBA0EC5
:1022E000E82EFED7CA2FFCD7CB2FFAD700F000017B
:1022F000D42B090ED4657FEF11F081EF11F055EF6B
:1023000011F085EC19F006C078F007C079F00001F3
:10231000782906E17929D8A490EF11F092EF11F015
:1023200098EF11F0010E966F000E796F000E786F26
:10233000A0EC19F0CBEC1AF000018951CA6FCB6BFD
:10234000280ECA27000ECB23D251CC6FCD6BCA51B9
:10235000CC5DCD51800ACE6FCB51800ACE59D8A02A
:10236000B4EF11F0B6EF11F0CFEF11F0E2EC1AF08C
:102370003CEC17F00001D32B590ED365C2EF11F0DE
:10238000C4EF11F0C9EF11F0000ED36F000E30EC66
:1023900018F00400000E0001D26F9AEF11F0D22B5A
:1023A000040003009CEF11F01FEF00F0899EAB0EBC
:1023B00077EC1AF0898E030E086E980EE82EFED781
:1023C000082EFCD7899E4B0E77EC1AF0000E77ECA6
:1023D0001AF0000E77EC1AF0000E77EC1AF0000EEF
:1023E00077EC1AF0000E0A6EFDEC1AF0000E77EC96
:1023F0001AF0096E030E0A6400EF12F002EF12F0F9
:102400000AEF12F0BF0E0A24D96EDA6A000EDA2241
:1024100009C0DFFF0A2A070E0A6411EF12F013EF5A
:1024200012F0F4EF11F0898E0001C329D8A41BEF3C
:1024300012F01DEF12F035EF12F0C429D8A423EFEB
:1024400012F025EF12F035EF12F0C529D8A42BEFCA
:1024500012F02DEF12F035EF12F0C629D8B433EF99
:1024600012F035EF12F055EF12F0C351D8A43BEF44
:1024700012F03DEF12F056EF12F0C451D8A443EF22
:1024800012F045EF12F056EF12F0C551D8A44BEF01
:1024900012F04DEF12F056EF12F0C651D8A453EFE0
:1024A00012F055EF12F056EF12F0FF00000E0A6E18
:1024B0000AC004F0056AC30E0A24D96EDA6A000E57
:1024C000DA22DF50066E26EC19F00A2A030E0A649F
:1024D0006CEF12F06EEF12F058EF12F0030E086E70
:1024E000980EE82EFED7082EFCD71200040E48ECFA
:1024F00019F004C00DF005C00EF0600E0D5C0A0E60
:102500000E58D8A086EF12F088EF12F0A3EF12F069
:10251000C40E0D5C0A0E0E58D8B091EF12F093EF76
:1025200012F0A3EF12F0600E0D5E0A0E0E5A0DC0EF
:102530000BF00EC00CF0010E0B24096E000E0C20E7
:102540000A6E0FEF13F0600E0D5C0A0E0E58D8B035
:10255000ACEF12F0AEEF12F0C9EF12F0FD0E0D5C11
:10256000090E0E58D8A0B7EF12F0B9EF12F0C9EF6C
:1025700012F00DC00BF00EC00CF0A00E0B26F50EE5
:102580000C22FF0E0B24096EFF0E0C200A6E0FEFBB
:1025900013F06D0E0D5C070E0E58D8A0D2EF12F09E
:1025A000D4EF12F0E5EF12F0D10E0D5C070E0E58CD
:1025B000D8B0DDEF12F0DFEF12F0E5EF12F06D0EA4
:1025C0000D5E070E0E5A97EF12F06D0E0D5C070EA2
:1025D0000E58D8B0EEEF12F0F0EF12F00BEF13F050
:1025E0000A0E0D5C070E0E58D8A0F9EF12F0FBEFA3
:1025F00012F00BEF13F00DC00BF00EC00CF0930EA9
:102600000B26F80E0C22FF0E0B24096EFF0E0C2079
:102610000A6E0FEF13F0000E0A6E000E096E120024
:10262000080E48EC19F004C053F005C054F03650C1
:10263000535E3750545A53C004F054C005F0066A34
:10264000076A000E3DEC10F004C038F005C039F008
:1026500006C03AF007C03BF0330E086E330E096E29
:10266000530E0A6E400E0B6E38C004F039C005F0F0
:102670003AC006F03BC007F0F9EC09F004C01DF0C9
:1026800005C01EF006C01FF007C020F0000E216E2E
:10269000000E226E800E236E450E246E0EEC0CF0A2
:1026A0001DC038F01EC039F01FC03AF020C03BF00A
:1026B000000E086E000E096EC80E0A6E420E0B6EFA
:1026C00038C004F039C005F03AC006F03BC007F04E
:1026D000F9EC09F004C01DF005C01EF006C01FF0A3
:1026E00007C020F0000E216E000E226E000E236E39
:1026F0003F0E246E99EC07F01DC038F01EC039F073
:102700001FC03AF020C03BF038C004F039C005F0DB
:102710003AC006F03BC007F093EC13F004C053F04E
:1027200005C054F01200063407340D6E0D50D8A4C5
:102730009CEF13F09EEF13F0A8EF13F0000E046E61
:10274000000E056E000E066E000E076E15EF14F0FB
:1027500004C008F005C009F006C00AF007C00BF07D
:10276000200EB8EF13F0D8900B320A32093208323B
:10277000E82EB3EF13F008500C6E068EFF0E041611
:10278000FF0E0516FF0E0616000E0716960E0D5EBE
:102790000DBECFEF13F0CDEF13F0E5EF13F00D50BA
:1027A000800A970FD8B0D7EF13F0D9EF13F0DBEF13
:1027B00013F09EEF13F0D890073206320532043240
:1027C0000D3EDBEF13F0FDEF13F01F0E0D64EBEF8A
:1027D00013F0EDEF13F0F5EF13F09EEF13F0D89038
:1027E00004360536063607360D060D50D8A4FBEF25
:1027F00013F0FDEF13F0EFEF13F00C50D8B403EF2C
:1028000014F005EF14F00DEF14F0071E061E051E60
:10281000046C000E05220622072204C004F005C045
:1028200005F006C006F007C007F01200096E70EF51
:1028300014F0000197511F0B8009976F97C005F0A6
:10284000000E3CEC1AF0800E0001906F030E076E34
:10285000980EE82EFED7072EFCD791EF14F000015A
:1028600097511F0B6009976F97C005F0000E3CEC65
:102870001AF0600E0001906F91EF14F00001975173
:102880001F0B2009976F97C005F0000E3CEC1AF063
:102890000D0E076EFC0EE82EFED7072EFCD7200E7D
:1028A0000001906F91EF14F0000197511F0B400948
:1028B000976F97C005F0000E3CEC1AF0400E000137
:1028C000906F91EF14F0000197511F0B976F000E5E
:1028D000906F97C005F0000E3CEC1AF091EF14F0E9
:1028E0000950076E086A0850000AD8B47AEF14F04D
:1028F00091EF14F00750000AD8B463EF14F0200AE7
:10290000D8B43EEF14F0600AD8B454EF14F0200AA3
:10291000D8B42FEF14F0E00AD8B419EF14F091EF07
:1029200014F01200000E0D6E07BE9BEF14F099EF2D
:1029300014F0A5EF14F0071E061E051E046C000E11
:10294000052206220722010E0D6E0BBEACEF14F01D
:10295000AAEF14F0B4EF14F00B1E0A1E091E086C47
:10296000000E09220A220B22085009100A100B102F
:10297000D8B4BDEF14F0BFEF14F0EFEF14F0010E78
:102980000C6EC9EF14F0D890083609360A360B36AB
:102990000C2A0BAECEEF14F0D0EF14F0C3EF14F00E
:1029A0000850045C095005580A5006580B50075847
:1029B000D8A0DDEF14F0DFEF14F0E7EF14F00850CB
:1029C000045E0950055A0A50065A0B50075AD8900F
:1029D0000B320A32093208320C2ED0EF14F00D50AF
:1029E000D8B4F5EF14F0F7EF14F0FFEF14F0071E72
:1029F000061E051E046C000E05220622072204C0D6
:102A000004F005C005F006C006F007C007F012008C
:102A1000000E066EC30E0624D96EDA6A000EDA22A4
:102A200006C004F0056A84EC1AF0DF6E062A030E75
:102A300006641DEF15F01FEF15F00AEF15F0000109
:102A4000C329D8A426EF15F028EF15F040EF15F0B4
:102A5000C429D8A42EEF15F030EF15F040EF15F093
:102A6000C529D8A436EF15F038EF15F040EF15F072
:102A7000C629D8B43EEF15F040EF15F060EF15F021
:102A8000C351D8A446EF15F048EF15F063EF15F0E9
:102A9000C451D8A44EEF15F050EF15F063EF15F0C8
:102AA000C551D8A456EF15F058EF15F063EF15F0A7
:102AB000C651D8A45EEF15F060EF15F063EF15F086
:102AC000000E64EF15F0010E1200056EC6BA6BEF32
:102AD00015F06DEF15F0BFEF15F00550040D010E68
:102AE000F326000EF422150EF324F66E0F0EF420DA
:102AF000F76EF86A000EF8220800F5CFC7FF055000
:102B0000040D150EF324F66E0F0EF420F76EF86A1E
:102B1000000EF8220800F5CFC6FF000EC56E055066
:102B2000040D020EF326000EF422150EF324F66EA9
:102B30000F0EF420F76EF86A000EF8220800F5CFA9
:102B4000C8FF0550040D030EF326000EF422150EE7
:102B5000F324F66E0F0EF420F76EF86A000EF822DA
:102B60000800F5CF04F004460446044694500418C7
:102B7000F70B0418946EC68A010EC0EF15F0000E14
:102B80001200BBC004F0BCC005F0BDC006F0BEC062
:102B900007F0B7C008F0B8C009F0B9C00AF0BAC071
:102BA0000BF0FBEC17F004C0BBF005C0BCF006C096
:102BB000BDF007C0BEF0390E0001BB27300EBC23AC
:102BC000000EBD23000EBE23100E126EBBC013F00C
:102BD000BCC014F0BDC015F0BEC016F01266F3EF15
:102BE00015F0FBEF15F0163416321532143213328D
:102BF000122EEEEF15F0FF0E1314046E7F0E141458
:102C0000056E000E1514066E000E1614076E10C029
:102C100008F011C009F00A6A0B6A92EC14F004C0C3
:102C200010F005C011F01200000E586E000E0E6E6E
:102C3000200E16EC14F00001A4510109056E1A0EC5
:102C40003CEC1AF0800E16EC14F00C50020FD3EC92
:102C50001AF0000ED3EC1AF0000E0F6E49EF16F0CA
:102C60000F500A24D96E000E0B20DA6EDF500D6E65
:102C70000E500D180E6E0D50D3EC1AF0240E0F18D6
:102C8000D8A445EF16F047EF16F048EF16F00D2ADE
:102C90000F2A0C500F5CD8A050EF16F052EF16F030
:102CA00030EF16F00E50D3EC1AF05850D8B45BEF5A
:102CB00016F05DEF16F055EF16F0000E16EC14F05E
:102CC0001200310E106E116806C00AF007C00BF03A
:102CD000A2EF16F004C0D9FF05C0DAFFDF50111AC9
:102CE000044A052A000E0D6E080E0C6E96EF16F0C3
:102CF00011BE7DEF16F07FEF16F086EF16F0D8903C
:102D000011340E6E0F6A0F3691EF16F0105011C08D
:102D100008F0096AD8900836093608180E6E09506E
:102D20000F6E0EC011F00C06D8A00D060C500D1041
:102D3000D8A49DEF16F09FEF16F078EF16F00A0674
:102D4000D8A00B060A500B10D8A4A9EF16F0ABEFD1
:102D500016F06AEF16F0115012003CC0D9FF3DC0CA
:102D6000DAFFDF503F6E3F50D8A4B9EF16F0BBEF4B
:102D700016F0BDEF16F0F8EF16F08A8678C036F040
:102D800079C037F010EC13F076EC12F009C040F087
:102D90000AC041F0545009E1650E535CD8A0D3EF4E
:102DA00016F0D5EF16F0F0EF16F040504110D8B401
:102DB000DCEF16F0DEEF16F0F0EF16F03CC0D9FFB6
:102DC0003DC0DAFF000EDF6E40C008F041C009F0E0
:102DD000EDEC19F085EC19F006C078F007C079F039
:102DE000820E3E6EDE0EE82EFED73E2EFCD78A9671
:102DF0001200046E000E056E949E8B9E948C030E42
:102E0000E82EFED700F0000E066ED89005368B8EA9
:102E1000030EE82EFED700F082AC11EF17F013EF8F
:102E200017F014EF17F005808B9E030EE82EFED7E7
:102E300000F0062A070E066420EF17F022EF17F0C5
:102E400005EF17F00450D8A428EF17F02AEF17F079
:102E50002CEF17F08B9C949C030EE82EFED700F00D
:102E60008B8E030EE82EFED700F08B9E030EE82E0D
:102E7000FED700F005501200960E3C6E000E3D6E1F
:102E8000ADEC16F061EC18F078C036F079C037F090
:102E900010EC13F0940E366E000E376E920E386EF4
:102EA000000E396EDBEC0DF0A0EC19F00001925130
:102EB0009425516E93519521526E53505126545082
:102EC000522251C074F052C075F0766B776B74C0AB
:102ED00004F075C005F076C006F077C007F0A7ECE7
:102EE0001AF0000E116E0F0E106EC1EC15F010509E
:102EF0000001896FBDEC17F01200046E04C005F0EC
:102F0000949C949E000E066E05AE89EF17F08BEF31
:102F100017F08EEF17F08B8C8FEF17F08B9CD890FB
:102F20000536030EE82EFED700F08B8E030EE82E3A
:102F3000FED700F08B9E030EE82EFED700F0062A87
:102F4000070E0664A6EF17F0A8EF17F084EF17F04E
:102F5000948C030EE82EFED700F08B8E030EE82E25
:102F6000FED700F0000E82BC010E066E8B9E030E93
:102F7000E82EFED700F006501200010E03EC19F007
:102F8000BFC010F0C0C011F0C1C012F0C2C013F039
:102F9000C3C014F0C4C015F0C5C016F0C6C017F009
:102FA000050E186E190E046E000E056E1D0E066ECF
:102FB0000F0E076E000E096E130E086E8DEC18F0E2
:102FC000300E2C6E53C02DF054C02EF02F6894C0DC
:102FD00030F095C031F092C032F093C033F0100E53
:102FE0000A6E000E0B6E240E0C6E14EC16F0000E22
:102FF00003EC19F01200000E0C6E000E0D6E000EA8
:103000000E6E000E0F6E04A008EF18F00AEF18F015
:1030100012EF18F008500C2609500D220A500E220B
:103020000B500F22D890083609360A360B36D89046
:10303000073206320532043204500510061007101C
:10304000D8A425EF18F027EF18F003EF18F00CC004
:1030500004F00DC005F00EC006F00FC007F012001E
:103060000D6E200E0001906F8986850EE82EFED72A
:1030700000F089960D0E0C6EFC0EE82EFED70C2E7D
:10308000FCD7010E076E0D5047EC0FF0000E0E6ED0
:10309000970E0E24D96EDA6A000EDA22DF50056E22
:1030A0000E50020DF3503CEC1AF00E2A1F0E0E6467
:1030B0005CEF18F05EEF18F048EF18F04EEC1AF0E5
:1030C0001200948C030EE82EFED700F0000E82BC96
:1030D000010E046E0450D8B470EF18F072EF18F0BF
:1030E00074EF18F08CEF18F0949E000E046E8B8E27
:1030F000030EE82EFED700F08B9E030EE82EFED7BF
:1031000000F0042A080E046488EF18F08AEF18F023
:1031100077EF18F05CEC1AF0120006C00CF007C054
:103120000DF004C00AF005C00BF0A9EF18F00CC0B8
:10313000F6FF0DC0F7FFF86A0800F5CF0EF00C4A55
:103140000D2A0AC0D9FF0BC0DAFF0EC0DFFF0A4A02
:103150000B2A0806D8A00906082806E10928D8A4E1
:10316000B4EF18F0B6EF18F097EF18F01200740EE5
:10317000F66E330EF76E000EF86E00EE97F010EE5E
:1031800033F00900F5CFEEFFE550E150FAE101EE32
:1031900000F0400EEE6AE806FDE100EE60F0370E4A
:1031A000EE6AE806FDE100EE53F0070EEE6AE8066F
:1031B000FDE15A905A92000117EF11F0000E81B80C
:1031C000010E016E0150D8B4E8EF18F0EAEF18F0E4
:1031D000ECEF18F0010E586E0001D551D611D8B49D
:1031E000F4EF18F0F6EF18F002EF19F002D802EF42
:1031F00019F00500FA6ED551FD6ED651FE6EFF6ACC
:10320000FA5012001200066E10EF19F0899C8B9490
:10321000899025EF19F0899C8B84899025EF19F00E
:103220000650046E056A0550000AD8B41AEF19F06A
:1032300025EF19F00450000AD8B406EF19F0010A7E
:10324000D8B40BEF19F025EF19F01200000EF2BE02
:10325000010E076E0550030B756E04C074FF06C0A7
:1032600073FF7F9E7F9C7F84F29E550E7E6EAA0E1A
:103270007E6E7F827FB23FEF19F041EF19F03AEF97
:1032800019F07F9407B002D0F29E01D0F28E1200A6
:10329000086E08C006F006460646C2500618830BA4
:1032A0000618C26EC280C28257EF19F00400C2B283
:1032B0005CEF19F05EEF19F056EF19F0C450076E8D
:1032C000066AC3500624046E000E0720056E120025
:1032D0008E0E896E050E8A6E000E8B6E200E926E1B
:1032E000320E936E130E946E100E0F015D6F010E71
:1032F0005C6F000E5B6FF18E5A89040E046E360E01
:10330000056EF4EC1AF0F2861200000E056E110E36
:10331000046E84EC1AF0086E0850096E0A6A0950AF
:103320000A6E096A000E056E100E046E84EC1AF027
:10333000086E0850091209C006F00AC007F0120012
:10334000440E076ED890073629EC1AF007507DEC32
:1033500017F00009D8A4AFEF19F0B1EF19F0B7EFEB
:1033600019F0240E7DEC17F0000E7DEC17F05CECEC
:103370001AF012002A8C01020CC177643277623293
:1033800038F81180E938380700000507090DF0000A
:103390004000D8806D4EC64101000000FFFFFFFFD6
:0733A000FFFFFFFF44FF03E4
:1033A800086EDBEF19F0F9EC1AF0ECEF19F00850A1
:1033B800066E076A0750000AD8B4E5EF19F0ECEF7B
:1033C80019F00650000AD8B4D7EF19F0ECEF19F04D
:1033D800120008C00AF009C00BF0000E056E100EAE
:1033E800046E0AC006F026EC19F0000E056E110EE8
:1033F800046E0BC006F026EC19F01200000E076EE2
:103408000DEF1AF01C0E16EC1AF0086E0850020B9D
:10341800076E0750D8B413EF1AF015EF1AF006EF3D
:103428001AF01200066E899406504009066EFDECEB
:103438001AF0065077EC1AF0FDEC1AF0065077EC0B
:103448001AF0056E898405501200948C030EE82E3C
:10345800FED700F08B8E949E8B9C949C030EE82ED6
:10346800FED700F08B9E030EE82EFED700F0120068
:10347800066E8994065077EC1AF0420EE82EFED7B5
:1034880000D0055077EC1AF0420EE82EFED700D097
:1034980089841200200E16EC14F0400E16EC14F07D
:1034A800E8EC1AF002EC1AF0000E16EC14F0120018
:1034B8008B9C949C030EE82EFED700F0949E8B8E76
:1034C800030EE82EFED700F0948C120000EC1BF0DF
:1034D800B1EC1AF068EC19F0BAEC1AF0DBEC1AF05F
:1034E8009CEC1AF01200046E04C0C9FF9EA67FEF80
:1034F8001AF081EF1AF07AEF1AF09E96C95012006E
:103508000550030B756E04C074FF7F9C7F9E7F80FF
:1035180000F000F0735012000F015AA996EF1AF04C
:1035280098EF1AF09AEF1AF0DEEC18F0F290120009
:10353800110EC26E000EC16EB90EC06E000EC46EC2
:10354800000EC36E120004500001B7270550B823BF
:103558000650B9230750BA231200400EC76E010E59
:10356800C66E000EC86E9496C69A1200620ED36E8E
:10357800000ED26E800E9B6E000E9A6E120004C072
:10358800BBF005C0BCF00001BD6BBE6B12008A9693
:10359800F29EF29C8150F290040003001200056E26
:1035A80089848992055077EC1AF089821200000EFE
:1035B800BB6E000EBD6E000EBC6E1200F28EF28C59
:1035C8008150F29004001200070E056E1C0E3CECB0
:1035D8001AF01200899EB90E77EC1AF0898E120043
:1035E80004C0D5F005C0D6F01200000E65EC15F049
:0E35F8001200C9509E961200D09E12001200C2
:020000040020DA
:08000000FFFFFFFFFFFFFFFF00
:020000040030CA
:0E0000001048741FFF0981FF0FC00FE00F4072
:00000001FF
