:040000000DEF00F010
:0400080067EF0AF0A4
:06001800C000D9EF0BF05F
:101000000057878388138AD58CBD8F62925E94F4D3
:101010009588971899E899B09A149B409CA09D8850
:101020009F5EA170A335A62CAA00456E45502324CF
:10103000236E000E2420246E000E466E100E4664B1
:1010400001D062D04650010D600EF324D96E000E1F
:10105000F420DA6EDF50D8A455D04650020D010EB0
:10106000F324D96E000EF420DA6E4550436E446AC4
:10107000010E4326000E4422DE50435CDE504458ED
:10108000D8B028D04650020D010EF324D96E000EC0
:10109000F420DA6E6F0078FF41F06F0074FF42F0C9
:1010A0004550436E446A431E441E434A442A4150FD
:1010B0004326425044224650020D010EF324D96EBD
:1010C000000EF420DA6E60000FF1DEFF600013F115
:1010D000DDFF18D04650020D010EF324D96E000E2C
:1010E000F420DA6EDE50DE10D8B40CD04650020D7B
:1010F000010EF324D96E000EF420DA6E010EDE6EBE
:10110000000EDD6E462A9AD7E80E235C030E2458A3
:10111000D8A01200180E2324236EFC0E2420246E67
:10112000352A000E476E100E476401D059D0475043
:10113000010D600EF324D96E000EF420DA6EDE0489
:10114000D8A44CD04750020D010EF324D96E000EE6
:10115000F420DA6E010EDB5004E1020EDE5CD8A052
:1011600025D0FF0E416EFF0E426E4750020D010E5C
:10117000F324D96E000EF420DA6E6F0078FF43F08E
:101180006F0074FF44F041504326425044224750C0
:10119000020D010EF324D96E000EF420DA6E600009
:1011A0000FF1DEFF600013F1DDFF18D04750020D94
:1011B000010EF324D96E000EF420DA6EDE50DE103C
:1011C000D8B40CD04750020D010EF324D96E000E96
:1011D000F420DA6E010EDE6E000EDD6E472AA3D714
:1011E0003B0E356412003550C40F356E342A000EA4
:1011F000486E100E486401D05AD04850010D600E60
:10120000F324D96E000EF420DA6E020EDE18D8A494
:101210004CD04850020D010EF324D96E000EF4207C
:10122000DA6E010EDB5004E1020EDE5CD8A025D0A0
:10123000FF0E416EFF0E426E4850020D010EF32468
:10124000D96E000EF420DA6E6F0078FF43F06F0065
:1012500074FF44F041504326425044224850020D4E
:10126000010EF324D96E000EF420DA6E60000FF147
:10127000DEFF600013F1DDFF18D04850020D010EB3
:10128000F324D96E000EF420DA6EDE50DE10D8B4EE
:101290000CD04850020D010EF324D96E000EF4203C
:1012A000DA6E010EDE6E000EDD6E482AA2D73B0E0E
:1012B000346412003450C40F346E000E496E100EA8
:1012C000496401D012004950010D600EF324D96E1B
:1012D000000EF420DA6E030EDE18D8A44CD049506C
:1012E000020D010EF324D96E000EF420DA6E010E09
:1012F000DB5004E1020EDE5CD8A025D0FF0E416E6B
:10130000FF0E426E4950020D010EF324D96E000EFD
:10131000F420DA6E6F0078FF43F06F0074FF44F042
:1013200041504326425044224950020D010EF324FD
:10133000D96E000EF420DA6E60000FF1DEFF60005F
:1013400013F1DDFF18D04950020D010EF324D96EC0
:10135000000EF420DA6EDE50DE10D8B40CD0495006
:10136000020D010EF324D96E000EF420DA6E010E88
:10137000DE6E000EDD6E492AA2D75A50D8B4120094
:101380003F01BAAD02D0010E01D0000EFF0A476E38
:10139000473A47464746BA514718BF0B4718BA6FF6
:1013A000BA9B000E5A6E010E426EF40E416E000E94
:1013B000436E020EEAEC0AF0020E6FEC0CF06000D5
:1013C00004F127F0600008F128F0140E2524476E80
:1013D000000E2620486E2750475C28504858D8A059
:1013E00014D0EC0E476EFF0E486E600094F049F08A
:1013F000600098F04AF04750492648504A22495028
:10140000275C4A502858D8B012003F01BA8B010E11
:10141000376E285009E1150E275CD8B005D0000EB4
:10142000266E140E256E120060009CF025F0600000
:10143000A0F026F01200C7EC0CF03F01BB99D28F50
:10144000000E4D6E090E4D6401D02AD0BB87E40E0C
:1014500000D000D0E82EFCD700D000D03F01BB97D1
:10146000BA8D090E4C6E1E0E4B6EE40EE82EFED7A2
:101470004B2EFCD74C2EFAD700D03F01BA9DBA8B29
:10148000090E4C6E1E0E4B6EE40EE82EFED74B2E50
:10149000FCD74C2EFAD700D03F01BA9B4D2AD2D7A9
:1014A0003901908F000E426E010E416E010E436EA7
:1014B000030EEAEC0AF0BDEC09F03750D8B404D0C2
:1014C000000E376EB0EC0BF083EC0BF0F4D7390163
:1014D00094B1A4A118D0000E3A6E03EC0DF0A6EC66
:1014E0000CF03B50D8A40BD0010E3B6E3F01BB89E2
:1014F000F60E406E3B0E3F6E95EC0CF004D0000EE5
:101500003B6E3F01BB993A0157AB11003A50D8A44A
:1015100010D0010E3D6E31503210D8B410D06000A2
:10152000C4F03FF06000C8F040F095EC0CF0010E04
:1015300005D031503210D8A402D0000E3A6E01D836
:1015400011000500FA6E5450FD6E5550FE6EFF6A94
:10155000FA501200432810E14428D8A40DD0FDEC25
:101560000CF03F01BB89000E426E000E416EB7ECDD
:101570000CF029682A681200B80E435C880E4458A3
:10158000D8B00FD0FDEC0CF03F01BB99000E426EBD
:10159000000E416EB7EC0CF0000E2A6E000E296EA4
:1015A0001200CD0E435CD80E4458D8A004D0D80EFB
:1015B000446ECC0E436E60000CF141F0600010F1FF
:1015C00042F0B7EC0CF060000CF129F0600010F173
:1015D0002AF01200466E41281BE14228D8A418D0F8
:1015E0004650020D010EF324D96E000EF420DA6E7F
:1015F000FF0EDE6EFF0EDD6E4650010D600EF32411
:10160000D96E000EF420DA6E60000FF1DFFF1200D9
:10161000010E4124446E000E4220456E4650020DDC
:10162000010EF324D96E000EF420DA6E600013F17F
:10163000DEFF600017F1DDFF4650010D600EF32460
:10164000D96E000EF420DA6E60000FF1DFFF120099
:10165000000E3E01DE6F000EDF6F000EE06F000E29
:10166000E16F000EE46F000EE56F000EEA6F000EF2
:10167000EC6F000EF16F010EF36F000EF46F000EB1
:10168000F56F000EF66F000EF76F000EF96F000E8B
:10169000FA6F000EFB6F000EFC6F000EFD6F000E68
:1016A000FE6F0F0EFF6F840EF86F1200000E3F01E9
:1016B000BA6F000EBB6F000EBC6F9F0EC26FE70EBD
:1016C000C36FC469DF0E3A01606FC70E506F9F0E83
:1016D000406F000E816F000E516F000E416F020EC1
:1016E000616F000E426F000E526F000E626F579BCB
:1016F000569B558B3901908F120E416E1A0E426E19
:10170000E9EC0CF01200F0EC0CF00009D8B405D0B4
:10171000FA0E15EC08F03EEC0CF0020E21EC0CF089
:101720000009D8B402D0010E5A6E030E21EC0CF061
:101730000009D8B412003F01BB87E40E00D000D0EE
:10174000E82EFCD700D000D03F01BB97000E426EC0
:10175000010E416E010E436E030EEAEC0AF0120018
:1017600060009CF041F06000A0F042F0000E446E7A
:10177000050E436E58EC0CF0600004F147F0600079
:1017800008F148F0540E4724476E880E4820486EF2
:101790004B0E475CD80E4858D8A002D0476848681E
:1017A00060001CF143F0600020F144F0AAEC0AF064
:1017B00012001E0EF66E1A0EF76E000EF86E00EE98
:1017C00056F010EE05F009006F00D7FFEEFFE55070
:1017D000E150F9E100EE60F0110EEE6AE806FDE17D
:1017E00000EE01F03E0EEE6AE806FDE1080ED56E51
:1017F000000ED66E000ED76E00011BEF0AF0000E31
:101800003F01B36F000EB46F010EB56F7E0EB16F66
:10181000500EB06FB151446E436AB0514324506EC4
:10182000000E4420516E3901A49194819493240EAA
:10183000416E1A0E426EE2EC0CF0200E3F01B26FC8
:101840001200436E4350020D010EF324D96E000EB8
:10185000F420DA6EDE04DE10D8A40ED04350020D60
:10186000010EF324D96E000EF420DA6E000EDE6E47
:10187000000EDD6E010E1200000E1200480E3F0138
:10188000B96FC20EB76FF70EB66FB6516F00DCFEC0
:1018900041F0426A600004F142F0416A4110526E28
:1018A0004250536E3901A39F900E3F01B86F120052
:1018B000415043026F00CCFF45F06F00D0FF46F06F
:1018C00041504402F350462642504302F35046260C
:1018D000600014F141F0600018F142F01200456E12
:1018E000600017F1F1FE3E01F88FF89DF881F8B124
:1018F000FED7F051446E436AEF514324416E000E0F
:101900004420426E1200000E3901C06F000EC16FFC
:10191000000EC26F000EC36F000EC46F000EC56FC5
:10192000000EC66F000EC76F12006000FCF050F092
:10193000600000F151F003EC0DF051503F01B16F28
:10194000600043F1B0FF06EC0DF012003901A491E4
:101950004E504F10D8B4120001D812000500FA6E94
:101960004E50FD6E4F50FE6EFF6AFA50120041500D
:101970004210D8B407D0600004F131F0600008F1E3
:1019800032F01200000E326E000E316E120000ECCA
:101990000DF083EC0CF056EC0BF0D6EC0CF028ECD0
:1019A0000BF0FFEC0BF03EEC0CF01200600E390176
:1019B000D96F000EDB6F000EDD6F080EDF6F000EBB
:1019C000DE6F1200600004F14EF0600008F14FF08D
:1019D0001200600004F154F0600008F155F01200AC
:1019E0003901A3AF02D0010E1200000E12003A011D
:1019F00057AB12000CEC0DF012003F01B291120037
:101A00003F01D29B12003F01B29112003F01B2810F
:101A10001200F7EC0CF012003A01579B1200B004D0
:031A2000000001C2
:021A24001200AE
:020000040020DA
:10000000FF0FFF0FFF0FFF0FFF0FFF0FFF0FFF0F80
:020000040030CA
:0A000000ECFFF7FF9FFFFFDFFFFF9B
:00000001FF
